Checking_3/Checking_3.sim/sim_1/behav/xsim/simulate.log
Time resolution is 1 ps
                   0clk = 0, s = x, rst = 1, Count = xx, address = xx, Control = xxxx, T = xxxxX, Inst = xx, A = x, B = x, Y = x
                  50clk = 1, s = 0, rst = 0, Count = xx, address = xx, Control = Xxxx, T = xxxxx, Inst = xx, A = x, B = x, Y = x
                 100clk = 0, s = 1, rst = 0, Count = 00, address = 00, Control = 4000, T = 0000X, Inst = 00, A = x, B = x, Y = x
                 150clk = 1, s = 1, rst = 0, Count = 00, address = 00, Control = 4000, T = 00001, Inst = 00, A = x, B = x, Y = x
                 200clk = 0, s = 1, rst = 0, Count = 00, address = 00, Control = 4000, T = 00001, Inst = 00, A = x, B = x, Y = x
                 250clk = 1, s = 0, rst = 0, Count = 00, address = 00, Control = 0002, T = 00002, Inst = 00, A = x, B = x, Y = x
                 300clk = 0, s = 0, rst = 0, Count = 00, address = 00, Control = 0002, T = 00002, Inst = 00, A = x, B = x, Y = x
                 350clk = 1, s = 0, rst = 0, Count = 00, address = 0Z, Control = 000d, T = 00004, Inst = 00, A = x, B = x, Y = x
                 400clk = 0, s = 0, rst = 0, Count = 00, address = 0Z, Control = 000d, T = 00004, Inst = 00, A = x, B = x, Y = x
                 450clk = 1, s = 0, rst = 0, Count = 00, address = 00, Control = 0010, T = 00008, Inst = 00, A = 0, B = x, Y = 0
                 500clk = 0, s = 0, rst = 0, Count = 00, address = 00, Control = 0010, T = 00008, Inst = 00, A = 0, B = x, Y = 0
                 550clk = 1, s = 0, rst = 0, Count = 01, address = 01, Control = 0080, T = 00010, Inst = 01, A = 0, B = 0, Y = 0
                 600clk = 0, s = 0, rst = 0, Count = 01, address = 01, Control = 0080, T = 00010, Inst = 01, A = 0, B = 0, Y = 0
                 650clk = 1, s = 0, rst = 0, Count = 01, address = 01, Control = 0002, T = 00002, Inst = 01, A = 0, B = 0, Y = 0
                 700clk = 0, s = 0, rst = 0, Count = 01, address = 01, Control = 0002, T = 00002, Inst = 01, A = 0, B = 0, Y = 0
                 750clk = 1, s = 0, rst = 0, Count = 01, address = 0Z, Control = 000d, T = 00004, Inst = 01, A = 0, B = 0, Y = 0
                 800clk = 0, s = 0, rst = 0, Count = 01, address = 0Z, Control = 000d, T = 00004, Inst = 01, A = 0, B = 0, Y = 0
                 850clk = 1, s = 0, rst = 0, Count = 01, address = 01, Control = 0010, T = 00008, Inst = 01, A = 1, B = 0, Y = 1
                 900clk = 0, s = 0, rst = 0, Count = 01, address = 01, Control = 0010, T = 00008, Inst = 01, A = 1, B = 0, Y = 1
                 950clk = 1, s = 0, rst = 0, Count = 02, address = 02, Control = 0080, T = 00010, Inst = 22, A = 1, B = 1, Y = 1
                1000clk = 0, s = 0, rst = 0, Count = 02, address = 02, Control = 0080, T = 00010, Inst = 22, A = 1, B = 1, Y = 1
                1050clk = 1, s = 0, rst = 0, Count = 02, address = 02, Control = 0002, T = 00002, Inst = 22, A = 1, B = 1, Y = 1
                1100clk = 0, s = 0, rst = 0, Count = 02, address = 02, Control = 0002, T = 00002, Inst = 22, A = 1, B = 1, Y = 1
                1150clk = 1, s = 0, rst = 0, Count = 02, address = 0Z, Control = 000d, T = 00004, Inst = 22, A = 1, B = 1, Y = 1
                1200clk = 0, s = 0, rst = 0, Count = 02, address = 0Z, Control = 000d, T = 00004, Inst = 22, A = 1, B = 1, Y = 1
                1250clk = 1, s = 0, rst = 0, Count = 02, address = 02, Control = 0010, T = 00008, Inst = 22, A = 2, B = 1, Y = 2
                1300clk = 0, s = 0, rst = 0, Count = 02, address = 02, Control = 0010, T = 00008, Inst = 22, A = 2, B = 1, Y = 2
                1350clk = 1, s = 0, rst = 0, Count = 02, address = 02, Control = 0000, T = 00040, Inst = 22, A = 2, B = 2, Y = 2
                1400clk = 0, s = 0, rst = 0, Count = 02, address = 02, Control = 0000, T = 00040, Inst = 22, A = 2, B = 2, Y = 2
                1450clk = 1, s = 0, rst = 0, Count = 02, address = 02, Control = 0100, T = 01000, Inst = 22, A = 2, B = 2, Y = 2
                1500clk = 0, s = 0, rst = 0, Count = 02, address = 02, Control = 0100, T = 01000, Inst = 22, A = 2, B = 2, Y = 2
                1550clk = 1, s = 0, rst = 0, Count = 02, address = 02, Control = 0002, T = 00002, Inst = 22, A = 2, B = 2, Y = 2
                1600clk = 0, s = 0, rst = 0, Count = 02, address = 02, Control = 0002, T = 00002, Inst = 22, A = 2, B = 2, Y = 2
                1650clk = 1, s = 0, rst = 0, Count = 02, address = 0Z, Control = 000d, T = 00004, Inst = 22, A = 2, B = 2, Y = 2
                1700clk = 0, s = 0, rst = 0, Count = 02, address = 0Z, Control = 000d, T = 00004, Inst = 22, A = 2, B = 2, Y = 2
                1750clk = 1, s = 0, rst = 0, Count = 02, address = 02, Control = 0010, T = 00008, Inst = 22, A = 2, B = 2, Y = 2
                1800clk = 0, s = 0, rst = 0, Count = 02, address = 02, Control = 0010, T = 00008, Inst = 22, A = 2, B = 2, Y = 2
                1850clk = 1, s = 0, rst = 0, Count = 02, address = 02, Control = 0000, T = 00040, Inst = 22, A = 2, B = 2, Y = 2
                1900clk = 0, s = 0, rst = 0, Count = 02, address = 02, Control = 0000, T = 00040, Inst = 22, A = 2, B = 2, Y = 2
                1950clk = 1, s = 0, rst = 0, Count = 02, address = 02, Control = 0100, T = 01000, Inst = 22, A = 2, B = 2, Y = 2
                2000clk = 0, s = 0, rst = 0, Count = 02, address = 02, Control = 0100, T = 01000, Inst = 22, A = 2, B = 2, Y = 2
                2050clk = 1, s = 0, rst = 0, Count = 02, address = 02, Control = 0002, T = 00002, Inst = 22, A = 2, B = 2, Y = 2
                2100clk = 0, s = 0, rst = 0, Count = 02, address = 02, Control = 0002, T = 00002, Inst = 22, A = 2, B = 2, Y = 2
                2150clk = 1, s = 0, rst = 0, Count = 02, address = 0Z, Control = 000d, T = 00004, Inst = 22, A = 2, B = 2, Y = 2
                2200clk = 0, s = 0, rst = 0, Count = 02, address = 0Z, Control = 000d, T = 00004, Inst = 22, A = 2, B = 2, Y = 2
                2250clk = 1, s = 0, rst = 0, Count = 02, address = 02, Control = 0010, T = 00008, Inst = 22, A = 2, B = 2, Y = 2
                2300clk = 0, s = 0, rst = 0, Count = 02, address = 02, Control = 0010, T = 00008, Inst = 22, A = 2, B = 2, Y = 2
                2350clk = 1, s = 0, rst = 0, Count = 02, address = 02, Control = 0000, T = 00040, Inst = 22, A = 2, B = 2, Y = 2
                2400clk = 0, s = 0, rst = 0, Count = 02, address = 02, Control = 0000, T = 00040, Inst = 22, A = 2, B = 2, Y = 2
                2450clk = 1, s = 0, rst = 0, Count = 02, address = 02, Control = 0100, T = 01000, Inst = 22, A = 2, B = 2, Y = 2
                2500clk = 0, s = 0, rst = 0, Count = 02, address = 02, Control = 0100, T = 01000, Inst = 22, A = 2, B = 2, Y = 2
                2550clk = 1, s = 0, rst = 0, Count = 02, address = 02, Control = 0002, T = 00002, Inst = 22, A = 2, B = 2, Y = 2
                2600clk = 0, s = 0, rst = 0, Count = 02, address = 02, Control = 0002, T = 00002, Inst = 22, A = 2, B = 2, Y = 2
                2650clk = 1, s = 0, rst = 0, Count = 02, address = 0Z, Control = 000d, T = 00004, Inst = 22, A = 2, B = 2, Y = 2
                2700clk = 0, s = 0, rst = 0, Count = 02, address = 0Z, Control = 000d, T = 00004, Inst = 22, A = 2, B = 2, Y = 2
                2750clk = 1, s = 0, rst = 0, Count = 02, address = 02, Control = 0010, T = 00008, Inst = 22, A = 2, B = 2, Y = 2
                2800clk = 0, s = 0, rst = 0, Count = 02, address = 02, Control = 0010, T = 00008, Inst = 22, A = 2, B = 2, Y = 2
                2850clk = 1, s = 0, rst = 0, Count = 02, address = 02, Control = 0000, T = 00040, Inst = 22, A = 2, B = 2, Y = 2
                2900clk = 0, s = 0, rst = 0, Count = 02, address = 02, Control = 0000, T = 00040, Inst = 22, A = 2, B = 2, Y = 2
                2950clk = 1, s = 0, rst = 0, Count = 02, address = 02, Control = 0100, T = 01000, Inst = 22, A = 2, B = 2, Y = 2
                3000clk = 0, s = 0, rst = 0, Count = 02, address = 02, Control = 0100, T = 01000, Inst = 22, A = 2, B = 2, Y = 2
                3050clk = 1, s = 0, rst = 0, Count = 02, address = 02, Control = 0002, T = 00002, Inst = 22, A = 2, B = 2, Y = 2
                3100clk = 0, s = 0, rst = 0, Count = 02, address = 02, Control = 0002, T = 00002, Inst = 22, A = 2, B = 2, Y = 2
                3150clk = 1, s = 0, rst = 0, Count = 02, address = 0Z, Control = 000d, T = 00004, Inst = 22, A = 2, B = 2, Y = 2
                3200clk = 0, s = 0, rst = 0, Count = 02, address = 0Z, Control = 000d, T = 00004, Inst = 22, A = 2, B = 2, Y = 2
                3250clk = 1, s = 0, rst = 0, Count = 02, address = 02, Control = 0010, T = 00008, Inst = 22, A = 2, B = 2, Y = 2
                3300clk = 0, s = 0, rst = 0, Count = 02, address = 02, Control = 0010, T = 00008, Inst = 22, A = 2, B = 2, Y = 2
                3350clk = 1, s = 0, rst = 0, Count = 02, address = 02, Control = 0000, T = 00040, Inst = 22, A = 2, B = 2, Y = 2
                3400clk = 0, s = 0, rst = 0, Count = 02, address = 02, Control = 0000, T = 00040, Inst = 22, A = 2, B = 2, Y = 2
                3450clk = 1, s = 0, rst = 0, Count = 02, address = 02, Control = 0100, T = 01000, Inst = 22, A = 2, B = 2, Y = 2
                3500clk = 0, s = 0, rst = 0, Count = 02, address = 02, Control = 0100, T = 01000, Inst = 22, A = 2, B = 2, Y = 2
                3550clk = 1, s = 0, rst = 0, Count = 02, address = 02, Control = 0002, T = 00002, Inst = 22, A = 2, B = 2, Y = 2
                3600clk = 0, s = 0, rst = 0, Count = 02, address = 02, Control = 0002, T = 00002, Inst = 22, A = 2, B = 2, Y = 2
                3650clk = 1, s = 0, rst = 0, Count = 02, address = 0Z, Control = 000d, T = 00004, Inst = 22, A = 2, B = 2, Y = 2
                3700clk = 0, s = 0, rst = 0, Count = 02, address = 0Z, Control = 000d, T = 00004, Inst = 22, A = 2, B = 2, Y = 2
                3750clk = 1, s = 0, rst = 0, Count = 02, address = 02, Control = 0010, T = 00008, Inst = 22, A = 2, B = 2, Y = 2
                3800clk = 0, s = 0, rst = 0, Count = 02, address = 02, Control = 0010, T = 00008, Inst = 22, A = 2, B = 2, Y = 2
                3850clk = 1, s = 0, rst = 0, Count = 02, address = 02, Control = 0000, T = 00040, Inst = 22, A = 2, B = 2, Y = 2
                3900clk = 0, s = 0, rst = 0, Count = 02, address = 02, Control = 0000, T = 00040, Inst = 22, A = 2, B = 2, Y = 2
                3950clk = 1, s = 0, rst = 0, Count = 02, address = 02, Control = 0100, T = 01000, Inst = 22, A = 2, B = 2, Y = 2
                4000clk = 0, s = 0, rst = 0, Count = 02, address = 02, Control = 0100, T = 01000, Inst = 22, A = 2, B = 2, Y = 2
                4050clk = 1, s = 0, rst = 0, Count = 02, address = 02, Control = 0002, T = 00002, Inst = 22, A = 2, B = 2, Y = 2
                4100clk = 0, s = 0, rst = 0, Count = 02, address = 02, Control = 0002, T = 00002, Inst = 22, A = 2, B = 2, Y = 2
                4150clk = 1, s = 0, rst = 0, Count = 02, address = 0Z, Control = 000d, T = 00004, Inst = 22, A = 2, B = 2, Y = 2
                4200clk = 0, s = 0, rst = 0, Count = 02, address = 0Z, Control = 000d, T = 00004, Inst = 22, A = 2, B = 2, Y = 2
                4250clk = 1, s = 0, rst = 0, Count = 02, address = 02, Control = 0010, T = 00008, Inst = 22, A = 2, B = 2, Y = 2
                4300clk = 0, s = 0, rst = 0, Count = 02, address = 02, Control = 0010, T = 00008, Inst = 22, A = 2, B = 2, Y = 2
                4350clk = 1, s = 0, rst = 0, Count = 02, address = 02, Control = 0000, T = 00040, Inst = 22, A = 2, B = 2, Y = 2
                4400clk = 0, s = 0, rst = 0, Count = 02, address = 02, Control = 0000, T = 00040, Inst = 22, A = 2, B = 2, Y = 2
                4450clk = 1, s = 0, rst = 0, Count = 02, address = 02, Control = 0100, T = 01000, Inst = 22, A = 2, B = 2, Y = 2
                4500clk = 0, s = 0, rst = 0, Count = 02, address = 02, Control = 0100, T = 01000, Inst = 22, A = 2, B = 2, Y = 2
                4550clk = 1, s = 0, rst = 0, Count = 02, address = 02, Control = 0002, T = 00002, Inst = 22, A = 2, B = 2, Y = 2
                4600clk = 0, s = 0, rst = 0, Count = 02, address = 02, Control = 0002, T = 00002, Inst = 22, A = 2, B = 2, Y = 2
                4650clk = 1, s = 0, rst = 0, Count = 02, address = 0Z, Control = 000d, T = 00004, Inst = 22, A = 2, B = 2, Y = 2
                4700clk = 0, s = 0, rst = 0, Count = 02, address = 0Z, Control = 000d, T = 00004, Inst = 22, A = 2, B = 2, Y = 2
                4750clk = 1, s = 0, rst = 0, Count = 02, address = 02, Control = 0010, T = 00008, Inst = 22, A = 2, B = 2, Y = 2
                4800clk = 0, s = 0, rst = 0, Count = 02, address = 02, Control = 0010, T = 00008, Inst = 22, A = 2, B = 2, Y = 2
                4850clk = 1, s = 0, rst = 0, Count = 02, address = 02, Control = 0000, T = 00040, Inst = 22, A = 2, B = 2, Y = 2
                4900clk = 0, s = 0, rst = 0, Count = 02, address = 02, Control = 0000, T = 00040, Inst = 22, A = 2, B = 2, Y = 2
                4950clk = 1, s = 0, rst = 0, Count = 02, address = 02, Control = 0100, T = 01000, Inst = 22, A = 2, B = 2, Y = 2
                5000clk = 0, s = 0, rst = 0, Count = 02, address = 02, Control = 0100, T = 01000, Inst = 22, A = 2, B = 2, Y = 2
                5050clk = 1, s = 0, rst = 0, Count = 02, address = 02, Control = 0002, T = 00002, Inst = 22, A = 2, B = 2, Y = 2
                5100clk = 0, s = 0, rst = 0, Count = 02, address = 02, Control = 0002, T = 00002, Inst = 22, A = 2, B = 2, Y = 2
                5150clk = 1, s = 0, rst = 0, Count = 02, address = 0Z, Control = 000d, T = 00004, Inst = 22, A = 2, B = 2, Y = 2
                5200clk = 0, s = 0, rst = 0, Count = 02, address = 0Z, Control = 000d, T = 00004, Inst = 22, A = 2, B = 2, Y = 2
                5250clk = 1, s = 0, rst = 0, Count = 02, address = 02, Control = 0010, T = 00008, Inst = 22, A = 2, B = 2, Y = 2
                5300clk = 0, s = 0, rst = 0, Count = 02, address = 02, Control = 0010, T = 00008, Inst = 22, A = 2, B = 2, Y = 2
                5350clk = 1, s = 0, rst = 0, Count = 02, address = 02, Control = 0000, T = 00040, Inst = 22, A = 2, B = 2, Y = 2
                5400clk = 0, s = 0, rst = 0, Count = 02, address = 02, Control = 0000, T = 00040, Inst = 22, A = 2, B = 2, Y = 2
                5450clk = 1, s = 0, rst = 0, Count = 02, address = 02, Control = 0100, T = 01000, Inst = 22, A = 2, B = 2, Y = 2
                5500clk = 0, s = 0, rst = 0, Count = 02, address = 02, Control = 0100, T = 01000, Inst = 22, A = 2, B = 2, Y = 2
                5550clk = 1, s = 0, rst = 0, Count = 02, address = 02, Control = 0002, T = 00002, Inst = 22, A = 2, B = 2, Y = 2
                5600clk = 0, s = 0, rst = 0, Count = 02, address = 02, Control = 0002, T = 00002, Inst = 22, A = 2, B = 2, Y = 2
                5650clk = 1, s = 0, rst = 0, Count = 02, address = 0Z, Control = 000d, T = 00004, Inst = 22, A = 2, B = 2, Y = 2
                5700clk = 0, s = 0, rst = 0, Count = 02, address = 0Z, Control = 000d, T = 00004, Inst = 22, A = 2, B = 2, Y = 2
                5750clk = 1, s = 0, rst = 0, Count = 02, address = 02, Control = 0010, T = 00008, Inst = 22, A = 2, B = 2, Y = 2
                5800clk = 0, s = 0, rst = 0, Count = 02, address = 02, Control = 0010, T = 00008, Inst = 22, A = 2, B = 2, Y = 2
                5850clk = 1, s = 0, rst = 0, Count = 02, address = 02, Control = 0000, T = 00040, Inst = 22, A = 2, B = 2, Y = 2
                5900clk = 0, s = 0, rst = 0, Count = 02, address = 02, Control = 0000, T = 00040, Inst = 22, A = 2, B = 2, Y = 2
                5950clk = 1, s = 0, rst = 0, Count = 02, address = 02, Control = 0100, T = 01000, Inst = 22, A = 2, B = 2, Y = 2
                6000clk = 0, s = 0, rst = 0, Count = 02, address = 02, Control = 0100, T = 01000, Inst = 22, A = 2, B = 2, Y = 2
                6050clk = 1, s = 0, rst = 0, Count = 02, address = 02, Control = 0002, T = 00002, Inst = 22, A = 2, B = 2, Y = 2
                6100clk = 0, s = 0, rst = 0, Count = 02, address = 02, Control = 0002, T = 00002, Inst = 22, A = 2, B = 2, Y = 2
                6150clk = 1, s = 0, rst = 0, Count = 02, address = 0Z, Control = 000d, T = 00004, Inst = 22, A = 2, B = 2, Y = 2
                6200clk = 0, s = 0, rst = 0, Count = 02, address = 0Z, Control = 000d, T = 00004, Inst = 22, A = 2, B = 2, Y = 2
                6250clk = 1, s = 0, rst = 0, Count = 02, address = 02, Control = 0010, T = 00008, Inst = 22, A = 2, B = 2, Y = 2
                6300clk = 0, s = 0, rst = 0, Count = 02, address = 02, Control = 0010, T = 00008, Inst = 22, A = 2, B = 2, Y = 2
                6350clk = 1, s = 0, rst = 0, Count = 02, address = 02, Control = 0000, T = 00040, Inst = 22, A = 2, B = 2, Y = 2
                6400clk = 0, s = 0, rst = 0, Count = 02, address = 02, Control = 0000, T = 00040, Inst = 22, A = 2, B = 2, Y = 2
                6450clk = 1, s = 0, rst = 0, Count = 02, address = 02, Control = 0100, T = 01000, Inst = 22, A = 2, B = 2, Y = 2
                6500clk = 0, s = 0, rst = 0, Count = 02, address = 02, Control = 0100, T = 01000, Inst = 22, A = 2, B = 2, Y = 2
                6550clk = 1, s = 0, rst = 0, Count = 02, address = 02, Control = 0002, T = 00002, Inst = 22, A = 2, B = 2, Y = 2
                6600clk = 0, s = 0, rst = 0, Count = 02, address = 02, Control = 0002, T = 00002, Inst = 22, A = 2, B = 2, Y = 2
                6650clk = 1, s = 0, rst = 0, Count = 02, address = 0Z, Control = 000d, T = 00004, Inst = 22, A = 2, B = 2, Y = 2
                6700clk = 0, s = 0, rst = 0, Count = 02, address = 0Z, Control = 000d, T = 00004, Inst = 22, A = 2, B = 2, Y = 2
                6750clk = 1, s = 0, rst = 0, Count = 02, address = 02, Control = 0010, T = 00008, Inst = 22, A = 2, B = 2, Y = 2
                6800clk = 0, s = 0, rst = 0, Count = 02, address = 02, Control = 0010, T = 00008, Inst = 22, A = 2, B = 2, Y = 2
                6850clk = 1, s = 0, rst = 0, Count = 02, address = 02, Control = 0000, T = 00040, Inst = 22, A = 2, B = 2, Y = 2
                6900clk = 0, s = 0, rst = 0, Count = 02, address = 02, Control = 0000, T = 00040, Inst = 22, A = 2, B = 2, Y = 2
                6950clk = 1, s = 0, rst = 0, Count = 02, address = 02, Control = 0100, T = 01000, Inst = 22, A = 2, B = 2, Y = 2
                7000clk = 0, s = 0, rst = 0, Count = 02, address = 02, Control = 0100, T = 01000, Inst = 22, A = 2, B = 2, Y = 2
                7050clk = 1, s = 0, rst = 0, Count = 02, address = 02, Control = 0002, T = 00002, Inst = 22, A = 2, B = 2, Y = 2
                7100clk = 0, s = 0, rst = 0, Count = 02, address = 02, Control = 0002, T = 00002, Inst = 22, A = 2, B = 2, Y = 2
                7150clk = 1, s = 0, rst = 0, Count = 02, address = 0Z, Control = 000d, T = 00004, Inst = 22, A = 2, B = 2, Y = 2
                7200clk = 0, s = 0, rst = 0, Count = 02, address = 0Z, Control = 000d, T = 00004, Inst = 22, A = 2, B = 2, Y = 2
                7250clk = 1, s = 0, rst = 0, Count = 02, address = 02, Control = 0010, T = 00008, Inst = 22, A = 2, B = 2, Y = 2
                7300clk = 0, s = 0, rst = 0, Count = 02, address = 02, Control = 0010, T = 00008, Inst = 22, A = 2, B = 2, Y = 2
                7350clk = 1, s = 0, rst = 0, Count = 02, address = 02, Control = 0000, T = 00040, Inst = 22, A = 2, B = 2, Y = 2
                7400clk = 0, s = 0, rst = 0, Count = 02, address = 02, Control = 0000, T = 00040, Inst = 22, A = 2, B = 2, Y = 2
                7450clk = 1, s = 0, rst = 0, Count = 02, address = 02, Control = 0100, T = 01000, Inst = 22, A = 2, B = 2, Y = 2
                7500clk = 0, s = 0, rst = 0, Count = 02, address = 02, Control = 0100, T = 01000, Inst = 22, A = 2, B = 2, Y = 2
                7550clk = 1, s = 0, rst = 0, Count = 02, address = 02, Control = 0002, T = 00002, Inst = 22, A = 2, B = 2, Y = 2
                7600clk = 0, s = 0, rst = 0, Count = 02, address = 02, Control = 0002, T = 00002, Inst = 22, A = 2, B = 2, Y = 2
                7650clk = 1, s = 0, rst = 0, Count = 02, address = 0Z, Control = 000d, T = 00004, Inst = 22, A = 2, B = 2, Y = 2
                7700clk = 0, s = 0, rst = 0, Count = 02, address = 0Z, Control = 000d, T = 00004, Inst = 22, A = 2, B = 2, Y = 2
                7750clk = 1, s = 0, rst = 0, Count = 02, address = 02, Control = 0010, T = 00008, Inst = 22, A = 2, B = 2, Y = 2
                7800clk = 0, s = 0, rst = 0, Count = 02, address = 02, Control = 0010, T = 00008, Inst = 22, A = 2, B = 2, Y = 2
                7850clk = 1, s = 0, rst = 0, Count = 02, address = 02, Control = 0000, T = 00040, Inst = 22, A = 2, B = 2, Y = 2
                7900clk = 0, s = 0, rst = 0, Count = 02, address = 02, Control = 0000, T = 00040, Inst = 22, A = 2, B = 2, Y = 2
                7950clk = 1, s = 0, rst = 0, Count = 02, address = 02, Control = 0100, T = 01000, Inst = 22, A = 2, B = 2, Y = 2
                8000clk = 0, s = 0, rst = 0, Count = 02, address = 02, Control = 0100, T = 01000, Inst = 22, A = 2, B = 2, Y = 2
                8050clk = 1, s = 0, rst = 0, Count = 02, address = 02, Control = 0002, T = 00002, Inst = 22, A = 2, B = 2, Y = 2
                8100clk = 0, s = 0, rst = 0, Count = 02, address = 02, Control = 0002, T = 00002, Inst = 22, A = 2, B = 2, Y = 2
                8150clk = 1, s = 0, rst = 0, Count = 02, address = 0Z, Control = 000d, T = 00004, Inst = 22, A = 2, B = 2, Y = 2
                8200clk = 0, s = 0, rst = 0, Count = 02, address = 0Z, Control = 000d, T = 00004, Inst = 22, A = 2, B = 2, Y = 2
                8250clk = 1, s = 0, rst = 0, Count = 02, address = 02, Control = 0010, T = 00008, Inst = 22, A = 2, B = 2, Y = 2
                8300clk = 0, s = 0, rst = 0, Count = 02, address = 02, Control = 0010, T = 00008, Inst = 22, A = 2, B = 2, Y = 2
                8350clk = 1, s = 0, rst = 0, Count = 02, address = 02, Control = 0000, T = 00040, Inst = 22, A = 2, B = 2, Y = 2
                8400clk = 0, s = 0, rst = 0, Count = 02, address = 02, Control = 0000, T = 00040, Inst = 22, A = 2, B = 2, Y = 2
                8450clk = 1, s = 0, rst = 0, Count = 02, address = 02, Control = 0100, T = 01000, Inst = 22, A = 2, B = 2, Y = 2
                8500clk = 0, s = 0, rst = 0, Count = 02, address = 02, Control = 0100, T = 01000, Inst = 22, A = 2, B = 2, Y = 2
                8550clk = 1, s = 0, rst = 0, Count = 02, address = 02, Control = 0002, T = 00002, Inst = 22, A = 2, B = 2, Y = 2
                8600clk = 0, s = 0, rst = 0, Count = 02, address = 02, Control = 0002, T = 00002, Inst = 22, A = 2, B = 2, Y = 2
                8650clk = 1, s = 0, rst = 0, Count = 02, address = 0Z, Control = 000d, T = 00004, Inst = 22, A = 2, B = 2, Y = 2
                8700clk = 0, s = 0, rst = 0, Count = 02, address = 0Z, Control = 000d, T = 00004, Inst = 22, A = 2, B = 2, Y = 2
                8750clk = 1, s = 0, rst = 0, Count = 02, address = 02, Control = 0010, T = 00008, Inst = 22, A = 2, B = 2, Y = 2
                8800clk = 0, s = 0, rst = 0, Count = 02, address = 02, Control = 0010, T = 00008, Inst = 22, A = 2, B = 2, Y = 2
                8850clk = 1, s = 0, rst = 0, Count = 02, address = 02, Control = 0000, T = 00040, Inst = 22, A = 2, B = 2, Y = 2
                8900clk = 0, s = 0, rst = 0, Count = 02, address = 02, Control = 0000, T = 00040, Inst = 22, A = 2, B = 2, Y = 2
                8950clk = 1, s = 0, rst = 0, Count = 02, address = 02, Control = 0100, T = 01000, Inst = 22, A = 2, B = 2, Y = 2
                9000clk = 0, s = 0, rst = 0, Count = 02, address = 02, Control = 0100, T = 01000, Inst = 22, A = 2, B = 2, Y = 2
                9050clk = 1, s = 0, rst = 0, Count = 02, address = 02, Control = 0002, T = 00002, Inst = 22, A = 2, B = 2, Y = 2
                9100clk = 0, s = 0, rst = 0, Count = 02, address = 02, Control = 0002, T = 00002, Inst = 22, A = 2, B = 2, Y = 2
                9150clk = 1, s = 0, rst = 0, Count = 02, address = 0Z, Control = 000d, T = 00004, Inst = 22, A = 2, B = 2, Y = 2
                9200clk = 0, s = 0, rst = 0, Count = 02, address = 0Z, Control = 000d, T = 00004, Inst = 22, A = 2, B = 2, Y = 2
                9250clk = 1, s = 0, rst = 0, Count = 02, address = 02, Control = 0010, T = 00008, Inst = 22, A = 2, B = 2, Y = 2
                9300clk = 0, s = 0, rst = 0, Count = 02, address = 02, Control = 0010, T = 00008, Inst = 22, A = 2, B = 2, Y = 2
                9350clk = 1, s = 0, rst = 0, Count = 02, address = 02, Control = 0000, T = 00040, Inst = 22, A = 2, B = 2, Y = 2
                9400clk = 0, s = 0, rst = 0, Count = 02, address = 02, Control = 0000, T = 00040, Inst = 22, A = 2, B = 2, Y = 2
                9450clk = 1, s = 0, rst = 0, Count = 02, address = 02, Control = 0100, T = 01000, Inst = 22, A = 2, B = 2, Y = 2
                9500clk = 0, s = 0, rst = 0, Count = 02, address = 02, Control = 0100, T = 01000, Inst = 22, A = 2, B = 2, Y = 2
                9550clk = 1, s = 0, rst = 0, Count = 02, address = 02, Control = 0002, T = 00002, Inst = 22, A = 2, B = 2, Y = 2
                9600clk = 0, s = 0, rst = 0, Count = 02, address = 02, Control = 0002, T = 00002, Inst = 22, A = 2, B = 2, Y = 2
                9650clk = 1, s = 0, rst = 0, Count = 02, address = 0Z, Control = 000d, T = 00004, Inst = 22, A = 2, B = 2, Y = 2
                9700clk = 0, s = 0, rst = 0, Count = 02, address = 0Z, Control = 000d, T = 00004, Inst = 22, A = 2, B = 2, Y = 2
                9750clk = 1, s = 0, rst = 0, Count = 02, address = 02, Control = 0010, T = 00008, Inst = 22, A = 2, B = 2, Y = 2
                9800clk = 0, s = 0, rst = 0, Count = 02, address = 02, Control = 0010, T = 00008, Inst = 22, A = 2, B = 2, Y = 2
                9850clk = 1, s = 0, rst = 0, Count = 02, address = 02, Control = 0000, T = 00040, Inst = 22, A = 2, B = 2, Y = 2
                9900clk = 0, s = 0, rst = 0, Count = 02, address = 02, Control = 0000, T = 00040, Inst = 22, A = 2, B = 2, Y = 2
                9950clk = 1, s = 0, rst = 0, Count = 02, address = 02, Control = 0100, T = 01000, Inst = 22, A = 2, B = 2, Y = 2
               10000clk = 0, s = 0, rst = 0, Count = 02, address = 02, Control = 0100, T = 01000, Inst = 22, A = 2, B = 2, Y = 2
