Checking_2/Checking_2.sim/sim_1/behav/xsim/simulate.log
Time resolution is 1 ps
                   0clk = 0, s = x, rst = 1, Count = xx, Inst = xx, T = xxxxX, Control = xxxx, A = x, B = x, Y = x, Data = x, Store = x, Stat = x
                  50clk = 1, s = x, rst = 1, Count = xx, Inst = xx, T = xxxxX, Control = xxxx, A = x, B = x, Y = x, Data = x, Store = x, Stat = x
                 100clk = 0, s = 0, rst = 0, Count = xx, Inst = xx, T = xxxxX, Control = Xxxx, A = x, B = x, Y = x, Data = x, Store = x, Stat = x
                 150clk = 1, s = 0, rst = 0, Count = xx, Inst = xx, T = xxxxx, Control = Xxxx, A = x, B = x, Y = x, Data = x, Store = x, Stat = x
                 200clk = 0, s = 1, rst = 0, Count = 00, Inst = xx, T = 0000X, Control = 8000, A = x, B = x, Y = x, Data = x, Store = z, Stat = x
                 250clk = 1, s = 1, rst = 0, Count = 00, Inst = xx, T = 00001, Control = 8000, A = x, B = x, Y = x, Data = x, Store = z, Stat = X
                 300clk = 0, s = 1, rst = 0, Count = 00, Inst = xx, T = 00001, Control = 8000, A = x, B = x, Y = x, Data = x, Store = z, Stat = X
                 350clk = 1, s = 1, rst = 0, Count = 00, Inst = xx, T = 00001, Control = 8000, A = x, B = x, Y = x, Data = x, Store = z, Stat = X
                 400clk = 0, s = 1, rst = 0, Count = 00, Inst = xx, T = 00001, Control = 8000, A = x, B = x, Y = x, Data = x, Store = z, Stat = X
                 450clk = 1, s = 1, rst = 0, Count = 00, Inst = xx, T = 00001, Control = 8000, A = x, B = x, Y = x, Data = x, Store = z, Stat = X
                 500clk = 0, s = 0, rst = 0, Count = 00, Inst = xx, T = 00001, Control = 0000, A = x, B = x, Y = x, Data = x, Store = z, Stat = X
                 550clk = 1, s = 0, rst = 0, Count = 00, Inst = xx, T = 00002, Control = 0002, A = x, B = x, Y = x, Data = x, Store = z, Stat = X
                 600clk = 0, s = 0, rst = 0, Count = 00, Inst = xx, T = 00002, Control = 0002, A = x, B = x, Y = x, Data = x, Store = z, Stat = X
                 650clk = 1, s = 0, rst = 0, Count = 01, Inst = 00, T = 00004, Control = 000d, A = x, B = x, Y = x, Data = x, Store = z, Stat = X
                 700clk = 0, s = 0, rst = 0, Count = 01, Inst = 00, T = 00004, Control = 000d, A = x, B = x, Y = x, Data = x, Store = z, Stat = X
                 750clk = 1, s = 0, rst = 0, Count = 01, Inst = 00, T = 00008, Control = 0000, A = x, B = x, Y = x, Data = x, Store = z, Stat = X
                 800clk = 0, s = 0, rst = 0, Count = 01, Inst = 00, T = 00008, Control = 0000, A = x, B = x, Y = x, Data = x, Store = z, Stat = X
                 850clk = 1, s = 0, rst = 0, Count = 01, Inst = 00, T = 00010, Control = 0010, A = x, B = x, Y = x, Data = x, Store = z, Stat = X
                 900clk = 0, s = 0, rst = 0, Count = 01, Inst = 00, T = 00010, Control = 0010, A = x, B = x, Y = x, Data = x, Store = z, Stat = X
                 950clk = 1, s = 0, rst = 0, Count = 01, Inst = 00, T = 00002, Control = 0002, A = 0, B = x, Y = 0, Data = x, Store = z, Stat = X
                1000clk = 0, s = 0, rst = 0, Count = 01, Inst = 00, T = 00002, Control = 0002, A = 0, B = x, Y = 0, Data = x, Store = z, Stat = X
                1050clk = 1, s = 0, rst = 0, Count = 02, Inst = 0f, T = 00004, Control = 000d, A = 0, B = x, Y = 0, Data = x, Store = z, Stat = 4
                1100clk = 0, s = 0, rst = 0, Count = 02, Inst = 0f, T = 00004, Control = 000d, A = 0, B = x, Y = 0, Data = x, Store = z, Stat = 4
                1150clk = 1, s = 0, rst = 0, Count = 02, Inst = 0f, T = 00008, Control = 0000, A = 0, B = x, Y = 0, Data = x, Store = z, Stat = 4
                1200clk = 0, s = 0, rst = 0, Count = 02, Inst = 0f, T = 00008, Control = 0000, A = 0, B = x, Y = 0, Data = x, Store = z, Stat = 4
                1250clk = 1, s = 0, rst = 0, Count = 02, Inst = 0f, T = 00010, Control = 0010, A = 0, B = x, Y = 0, Data = x, Store = z, Stat = 4
                1300clk = 0, s = 0, rst = 0, Count = 02, Inst = 0f, T = 00010, Control = 0010, A = 0, B = x, Y = 0, Data = x, Store = z, Stat = 4
                1350clk = 1, s = 0, rst = 0, Count = 02, Inst = 0f, T = 00002, Control = 0002, A = f, B = x, Y = f, Data = x, Store = z, Stat = 4
                1400clk = 0, s = 0, rst = 0, Count = 02, Inst = 0f, T = 00002, Control = 0002, A = f, B = x, Y = f, Data = x, Store = z, Stat = 4
                1450clk = 1, s = 0, rst = 0, Count = 03, Inst = 2f, T = 00004, Control = 000d, A = f, B = x, Y = f, Data = x, Store = z, Stat = 2
                1500clk = 0, s = 0, rst = 0, Count = 03, Inst = 2f, T = 00004, Control = 000d, A = f, B = x, Y = f, Data = x, Store = z, Stat = 2
                1550clk = 1, s = 0, rst = 0, Count = 03, Inst = 2f, T = 00008, Control = 0000, A = f, B = x, Y = f, Data = x, Store = z, Stat = 2
                1600clk = 0, s = 0, rst = 0, Count = 03, Inst = 2f, T = 00008, Control = 0000, A = f, B = x, Y = f, Data = x, Store = z, Stat = 2
                1650clk = 1, s = 0, rst = 0, Count = 03, Inst = 2f, T = 00040, Control = 0020, A = f, B = x, Y = f, Data = x, Store = z, Stat = 2
                1700clk = 0, s = 0, rst = 0, Count = 03, Inst = 2f, T = 00040, Control = 0020, A = f, B = x, Y = f, Data = x, Store = z, Stat = 2
                1750clk = 1, s = 0, rst = 0, Count = 03, Inst = 2f, T = 01000, Control = 0240, A = f, B = f, Y = e, Data = x, Store = z, Stat = 2
                1800clk = 0, s = 0, rst = 0, Count = 03, Inst = 2f, T = 01000, Control = 0240, A = f, B = f, Y = e, Data = x, Store = z, Stat = 2
                1850clk = 1, s = 0, rst = 0, Count = 03, Inst = 2f, T = 00002, Control = 0002, A = f, B = f, Y = f, Data = e, Store = z, Stat = 3
                1900clk = 0, s = 0, rst = 0, Count = 03, Inst = 2f, T = 00002, Control = 0002, A = f, B = f, Y = f, Data = e, Store = z, Stat = 3
                1950clk = 1, s = 0, rst = 0, Count = 04, Inst = 02, T = 00004, Control = 000d, A = f, B = f, Y = f, Data = e, Store = z, Stat = 2
                2000clk = 0, s = 0, rst = 0, Count = 04, Inst = 02, T = 00004, Control = 000d, A = f, B = f, Y = f, Data = e, Store = z, Stat = 2
                2050clk = 1, s = 0, rst = 0, Count = 04, Inst = 02, T = 00008, Control = 0000, A = f, B = f, Y = f, Data = e, Store = z, Stat = 2
                2100clk = 0, s = 0, rst = 0, Count = 04, Inst = 02, T = 00008, Control = 0000, A = f, B = f, Y = f, Data = e, Store = z, Stat = 2
                2150clk = 1, s = 0, rst = 0, Count = 04, Inst = 02, T = 00010, Control = 0010, A = f, B = f, Y = f, Data = e, Store = z, Stat = 2
                2200clk = 0, s = 0, rst = 0, Count = 04, Inst = 02, T = 00010, Control = 0010, A = f, B = f, Y = f, Data = e, Store = z, Stat = 2
                2250clk = 1, s = 0, rst = 0, Count = 04, Inst = 02, T = 00002, Control = 0002, A = 2, B = f, Y = 2, Data = e, Store = z, Stat = 2
                2300clk = 0, s = 0, rst = 0, Count = 04, Inst = 02, T = 00002, Control = 0002, A = 2, B = f, Y = 2, Data = e, Store = z, Stat = 2
                2350clk = 1, s = 0, rst = 0, Count = 05, Inst = 31, T = 00004, Control = 000d, A = 2, B = f, Y = 2, Data = e, Store = z, Stat = 0
                2400clk = 0, s = 0, rst = 0, Count = 05, Inst = 31, T = 00004, Control = 000d, A = 2, B = f, Y = 2, Data = e, Store = z, Stat = 0
                2450clk = 1, s = 0, rst = 0, Count = 05, Inst = 31, T = 00008, Control = 0000, A = 2, B = f, Y = 2, Data = e, Store = z, Stat = 0
                2500clk = 0, s = 0, rst = 0, Count = 05, Inst = 31, T = 00008, Control = 0000, A = 2, B = f, Y = 2, Data = e, Store = z, Stat = 0
                2550clk = 1, s = 0, rst = 0, Count = 05, Inst = 31, T = 00040, Control = 0020, A = 2, B = f, Y = 2, Data = e, Store = z, Stat = 0
                2600clk = 0, s = 0, rst = 0, Count = 05, Inst = 31, T = 00040, Control = 0020, A = 2, B = f, Y = 2, Data = e, Store = z, Stat = 0
                2650clk = 1, s = 0, rst = 0, Count = 05, Inst = 31, T = 02000, Control = 0440, A = 2, B = 1, Y = 0, Data = e, Store = z, Stat = 0
                2700clk = 0, s = 0, rst = 0, Count = 05, Inst = 31, T = 02000, Control = 0440, A = 2, B = 1, Y = 0, Data = e, Store = z, Stat = 0
                2750clk = 1, s = 0, rst = 0, Count = 05, Inst = 31, T = 00002, Control = 0002, A = 2, B = 1, Y = 2, Data = 0, Store = z, Stat = 5
                2800clk = 0, s = 0, rst = 0, Count = 05, Inst = 31, T = 00002, Control = 0002, A = 2, B = 1, Y = 2, Data = 0, Store = z, Stat = 5
                2850clk = 1, s = 0, rst = 0, Count = 06, Inst = 22, T = 00004, Control = 000d, A = 2, B = 1, Y = 2, Data = 0, Store = z, Stat = 0
                2900clk = 0, s = 0, rst = 0, Count = 06, Inst = 22, T = 00004, Control = 000d, A = 2, B = 1, Y = 2, Data = 0, Store = z, Stat = 0
                2950clk = 1, s = 0, rst = 0, Count = 06, Inst = 22, T = 00008, Control = 0000, A = 2, B = 1, Y = 2, Data = 0, Store = z, Stat = 0
                3000clk = 0, s = 0, rst = 0, Count = 06, Inst = 22, T = 00008, Control = 0000, A = 2, B = 1, Y = 2, Data = 0, Store = z, Stat = 0
                3050clk = 1, s = 0, rst = 0, Count = 06, Inst = 22, T = 00040, Control = 0020, A = 2, B = 1, Y = 2, Data = 0, Store = z, Stat = 0
                3100clk = 0, s = 0, rst = 0, Count = 06, Inst = 22, T = 00040, Control = 0020, A = 2, B = 1, Y = 2, Data = 0, Store = z, Stat = 0
                3150clk = 1, s = 0, rst = 0, Count = 06, Inst = 22, T = 01000, Control = 0240, A = 2, B = 2, Y = 4, Data = 0, Store = z, Stat = 0
                3200clk = 0, s = 0, rst = 0, Count = 06, Inst = 22, T = 01000, Control = 0240, A = 2, B = 2, Y = 4, Data = 0, Store = z, Stat = 0
                3250clk = 1, s = 0, rst = 0, Count = 06, Inst = 22, T = 00002, Control = 0002, A = 2, B = 2, Y = 2, Data = 4, Store = z, Stat = 0
                3300clk = 0, s = 0, rst = 0, Count = 06, Inst = 22, T = 00002, Control = 0002, A = 2, B = 2, Y = 2, Data = 4, Store = z, Stat = 0
                3350clk = 1, s = 0, rst = 0, Count = 07, Inst = 03, T = 00004, Control = 000d, A = 2, B = 2, Y = 2, Data = 4, Store = z, Stat = 0
                3400clk = 0, s = 0, rst = 0, Count = 07, Inst = 03, T = 00004, Control = 000d, A = 2, B = 2, Y = 2, Data = 4, Store = z, Stat = 0
                3450clk = 1, s = 0, rst = 0, Count = 07, Inst = 03, T = 00008, Control = 0000, A = 2, B = 2, Y = 2, Data = 4, Store = z, Stat = 0
                3500clk = 0, s = 0, rst = 0, Count = 07, Inst = 03, T = 00008, Control = 0000, A = 2, B = 2, Y = 2, Data = 4, Store = z, Stat = 0
                3550clk = 1, s = 0, rst = 0, Count = 07, Inst = 03, T = 00010, Control = 0010, A = 2, B = 2, Y = 2, Data = 4, Store = z, Stat = 0
                3600clk = 0, s = 0, rst = 0, Count = 07, Inst = 03, T = 00010, Control = 0010, A = 2, B = 2, Y = 2, Data = 4, Store = z, Stat = 0
                3650clk = 1, s = 0, rst = 0, Count = 07, Inst = 03, T = 00002, Control = 0002, A = 3, B = 2, Y = 3, Data = 4, Store = z, Stat = 0
                3700clk = 0, s = 0, rst = 0, Count = 07, Inst = 03, T = 00002, Control = 0002, A = 3, B = 2, Y = 3, Data = 4, Store = z, Stat = 0
                3750clk = 1, s = 0, rst = 0, Count = 08, Inst = 33, T = 00004, Control = 000d, A = 3, B = 2, Y = 3, Data = 4, Store = z, Stat = 0
                3800clk = 0, s = 0, rst = 0, Count = 08, Inst = 33, T = 00004, Control = 000d, A = 3, B = 2, Y = 3, Data = 4, Store = z, Stat = 0
                3850clk = 1, s = 0, rst = 0, Count = 08, Inst = 33, T = 00008, Control = 0000, A = 3, B = 2, Y = 3, Data = 4, Store = z, Stat = 0
                3900clk = 0, s = 0, rst = 0, Count = 08, Inst = 33, T = 00008, Control = 0000, A = 3, B = 2, Y = 3, Data = 4, Store = z, Stat = 0
                3950clk = 1, s = 0, rst = 0, Count = 08, Inst = 33, T = 00040, Control = 0020, A = 3, B = 2, Y = 3, Data = 4, Store = z, Stat = 0
                4000clk = 0, s = 0, rst = 0, Count = 08, Inst = 33, T = 00040, Control = 0020, A = 3, B = 2, Y = 3, Data = 4, Store = z, Stat = 0
                4050clk = 1, s = 0, rst = 0, Count = 08, Inst = 33, T = 02000, Control = 0440, A = 3, B = 3, Y = f, Data = 4, Store = z, Stat = 0
                4100clk = 0, s = 0, rst = 0, Count = 08, Inst = 33, T = 02000, Control = 0440, A = 3, B = 3, Y = f, Data = 4, Store = z, Stat = 0
                4150clk = 1, s = 0, rst = 0, Count = 08, Inst = 33, T = 00002, Control = 0002, A = 3, B = 3, Y = 3, Data = f, Store = z, Stat = 2
                4200clk = 0, s = 0, rst = 0, Count = 08, Inst = 33, T = 00002, Control = 0002, A = 3, B = 3, Y = 3, Data = f, Store = z, Stat = 2
                4250clk = 1, s = 0, rst = 0, Count = 09, Inst = 10, T = 00004, Control = 000d, A = 3, B = 3, Y = 3, Data = f, Store = z, Stat = 0
                4300clk = 0, s = 0, rst = 0, Count = 09, Inst = 10, T = 00004, Control = 000d, A = 3, B = 3, Y = 3, Data = f, Store = z, Stat = 0
                4350clk = 1, s = 0, rst = 0, Count = 09, Inst = 10, T = 00008, Control = 0000, A = 3, B = 3, Y = 3, Data = f, Store = z, Stat = 0
                4400clk = 0, s = 0, rst = 0, Count = 09, Inst = 10, T = 00008, Control = 0000, A = 3, B = 3, Y = 3, Data = f, Store = z, Stat = 0
                4450clk = 1, s = 0, rst = 0, Count = 09, Inst = 10, T = 00020, Control = 0102, A = 3, B = 3, Y = 3, Data = f, Store = z, Stat = 0
                4500clk = 0, s = 0, rst = 0, Count = 09, Inst = 10, T = 00020, Control = 0102, A = 3, B = 3, Y = 3, Data = f, Store = z, Stat = 0
                4550clk = 1, s = 0, rst = 0, Count = 09, Inst = 90, T = 00800, Control = 0084, A = 3, B = 3, Y = 3, Data = f, Store = 0, Stat = 0
                4600clk = 0, s = 0, rst = 0, Count = 09, Inst = 90, T = 00800, Control = 0084, A = 3, B = 3, Y = 3, Data = f, Store = 0, Stat = 0
                4650clk = 1, s = 0, rst = 0, Count = 09, Inst = 90, T = 00002, Control = 0002, A = 3, B = 3, Y = 3, Data = f, Store = z, Stat = 0
                4700clk = 0, s = 0, rst = 0, Count = 09, Inst = 90, T = 00002, Control = 0002, A = 3, B = 3, Y = 3, Data = f, Store = z, Stat = 0
                4750clk = 1, s = 0, rst = 0, Count = 0a, Inst = 20, T = 00004, Control = 000d, A = 3, B = 3, Y = 3, Data = f, Store = z, Stat = 0
                4800clk = 0, s = 0, rst = 0, Count = 0a, Inst = 20, T = 00004, Control = 000d, A = 3, B = 3, Y = 3, Data = f, Store = z, Stat = 0
                4850clk = 1, s = 0, rst = 0, Count = 0a, Inst = 20, T = 00008, Control = 0000, A = 3, B = 3, Y = 3, Data = f, Store = z, Stat = 0
                4900clk = 0, s = 0, rst = 0, Count = 0a, Inst = 20, T = 00008, Control = 0000, A = 3, B = 3, Y = 3, Data = f, Store = z, Stat = 0
                4950clk = 1, s = 0, rst = 0, Count = 0a, Inst = 20, T = 00040, Control = 0020, A = 3, B = 3, Y = 3, Data = f, Store = z, Stat = 0
                5000clk = 0, s = 0, rst = 0, Count = 0a, Inst = 20, T = 00040, Control = 0020, A = 3, B = 3, Y = 3, Data = f, Store = z, Stat = 0
                5050clk = 1, s = 0, rst = 0, Count = 0a, Inst = 20, T = 01000, Control = 0240, A = 3, B = 0, Y = 3, Data = f, Store = z, Stat = 0
                5100clk = 0, s = 0, rst = 0, Count = 0a, Inst = 20, T = 01000, Control = 0240, A = 3, B = 0, Y = 3, Data = f, Store = z, Stat = 0
                5150clk = 1, s = 0, rst = 0, Count = 0a, Inst = 20, T = 00002, Control = 0002, A = 3, B = 0, Y = 3, Data = 3, Store = z, Stat = 0
                5200clk = 0, s = 0, rst = 0, Count = 0a, Inst = 20, T = 00002, Control = 0002, A = 3, B = 0, Y = 3, Data = 3, Store = z, Stat = 0
                5250clk = 1, s = 0, rst = 0, Count = 0b, Inst = 30, T = 00004, Control = 000d, A = 3, B = 0, Y = 3, Data = 3, Store = z, Stat = 0
                5300clk = 0, s = 0, rst = 0, Count = 0b, Inst = 30, T = 00004, Control = 000d, A = 3, B = 0, Y = 3, Data = 3, Store = z, Stat = 0
                5350clk = 1, s = 0, rst = 0, Count = 0b, Inst = 30, T = 00008, Control = 0000, A = 3, B = 0, Y = 3, Data = 3, Store = z, Stat = 0
                5400clk = 0, s = 0, rst = 0, Count = 0b, Inst = 30, T = 00008, Control = 0000, A = 3, B = 0, Y = 3, Data = 3, Store = z, Stat = 0
                5450clk = 1, s = 0, rst = 0, Count = 0b, Inst = 30, T = 00040, Control = 0020, A = 3, B = 0, Y = 3, Data = 3, Store = z, Stat = 0
                5500clk = 0, s = 0, rst = 0, Count = 0b, Inst = 30, T = 00040, Control = 0020, A = 3, B = 0, Y = 3, Data = 3, Store = z, Stat = 0
                5550clk = 1, s = 0, rst = 0, Count = 0b, Inst = 30, T = 02000, Control = 0440, A = 3, B = 0, Y = 2, Data = 3, Store = z, Stat = 0
                5600clk = 0, s = 0, rst = 0, Count = 0b, Inst = 30, T = 02000, Control = 0440, A = 3, B = 0, Y = 2, Data = 3, Store = z, Stat = 0
                5650clk = 1, s = 0, rst = 0, Count = 0b, Inst = 30, T = 00002, Control = 0002, A = 3, B = 0, Y = 3, Data = 2, Store = z, Stat = 1
                5700clk = 0, s = 0, rst = 0, Count = 0b, Inst = 30, T = 00002, Control = 0002, A = 3, B = 0, Y = 3, Data = 2, Store = z, Stat = 1
                5750clk = 1, s = 0, rst = 0, Count = 0c, Inst = 40, T = 00004, Control = 000d, A = 3, B = 0, Y = 3, Data = 2, Store = z, Stat = 0
                5800clk = 0, s = 0, rst = 0, Count = 0c, Inst = 40, T = 00004, Control = 000d, A = 3, B = 0, Y = 3, Data = 2, Store = z, Stat = 0
                5850clk = 1, s = 0, rst = 0, Count = 0c, Inst = 40, T = 00008, Control = 0000, A = 3, B = 0, Y = 3, Data = 2, Store = z, Stat = 0
                5900clk = 0, s = 0, rst = 0, Count = 0c, Inst = 40, T = 00008, Control = 0000, A = 3, B = 0, Y = 3, Data = 2, Store = z, Stat = 0
                5950clk = 1, s = 0, rst = 0, Count = 0c, Inst = 40, T = 00080, Control = 1040, A = 3, B = 0, Y = 4, Data = 2, Store = z, Stat = 0
                6000clk = 0, s = 0, rst = 0, Count = 0c, Inst = 40, T = 00080, Control = 1040, A = 3, B = 0, Y = 4, Data = 2, Store = z, Stat = 0
                6050clk = 1, s = 0, rst = 0, Count = 0c, Inst = 40, T = 00002, Control = 0002, A = 3, B = 0, Y = 3, Data = 4, Store = z, Stat = 0
                6100clk = 0, s = 0, rst = 0, Count = 0c, Inst = 40, T = 00002, Control = 0002, A = 3, B = 0, Y = 3, Data = 4, Store = z, Stat = 0
                6150clk = 1, s = 0, rst = 0, Count = 0d, Inst = 50, T = 00004, Control = 000d, A = 3, B = 0, Y = 3, Data = 4, Store = z, Stat = 0
                6200clk = 0, s = 0, rst = 0, Count = 0d, Inst = 50, T = 00004, Control = 000d, A = 3, B = 0, Y = 3, Data = 4, Store = z, Stat = 0
                6250clk = 1, s = 0, rst = 0, Count = 0d, Inst = 50, T = 00008, Control = 0000, A = 3, B = 0, Y = 3, Data = 4, Store = z, Stat = 0
                6300clk = 0, s = 0, rst = 0, Count = 0d, Inst = 50, T = 00008, Control = 0000, A = 3, B = 0, Y = 3, Data = 4, Store = z, Stat = 0
                6350clk = 1, s = 0, rst = 0, Count = 0d, Inst = 50, T = 00100, Control = 0640, A = 3, B = 0, Y = 2, Data = 4, Store = z, Stat = 0
                6400clk = 0, s = 0, rst = 0, Count = 0d, Inst = 50, T = 00100, Control = 0640, A = 3, B = 0, Y = 2, Data = 4, Store = z, Stat = 0
                6450clk = 1, s = 0, rst = 0, Count = 0d, Inst = 50, T = 00002, Control = 0002, A = 3, B = 0, Y = 3, Data = 2, Store = z, Stat = 1
                6500clk = 0, s = 0, rst = 0, Count = 0d, Inst = 50, T = 00002, Control = 0002, A = 3, B = 0, Y = 3, Data = 2, Store = z, Stat = 1
                6550clk = 1, s = 0, rst = 0, Count = 0e, Inst = 60, T = 00004, Control = 000d, A = 3, B = 0, Y = 3, Data = 2, Store = z, Stat = 0
                6600clk = 0, s = 0, rst = 0, Count = 0e, Inst = 60, T = 00004, Control = 000d, A = 3, B = 0, Y = 3, Data = 2, Store = z, Stat = 0
                6650clk = 1, s = 0, rst = 0, Count = 0e, Inst = 60, T = 00008, Control = 0000, A = 3, B = 0, Y = 3, Data = 2, Store = z, Stat = 0
                6700clk = 0, s = 0, rst = 0, Count = 0e, Inst = 60, T = 00008, Control = 0000, A = 3, B = 0, Y = 3, Data = 2, Store = z, Stat = 0
                6750clk = 1, s = 0, rst = 0, Count = 0e, Inst = 60, T = 00040, Control = 0020, A = 3, B = 0, Y = 3, Data = 2, Store = z, Stat = 0
                6800clk = 0, s = 0, rst = 0, Count = 0e, Inst = 60, T = 00040, Control = 0020, A = 3, B = 0, Y = 3, Data = 2, Store = z, Stat = 0
                6850clk = 1, s = 0, rst = 0, Count = 0e, Inst = 60, T = 04000, Control = 0c40, A = 3, B = 0, Y = 0, Data = 2, Store = z, Stat = 0
                6900clk = 0, s = 0, rst = 0, Count = 0e, Inst = 60, T = 04000, Control = 0c40, A = 3, B = 0, Y = 0, Data = 2, Store = z, Stat = 0
                6950clk = 1, s = 0, rst = 0, Count = 0e, Inst = 60, T = 00002, Control = 0002, A = 3, B = 0, Y = 3, Data = 0, Store = z, Stat = 5
                7000clk = 0, s = 0, rst = 0, Count = 0e, Inst = 60, T = 00002, Control = 0002, A = 3, B = 0, Y = 3, Data = 0, Store = z, Stat = 5
                7050clk = 1, s = 0, rst = 0, Count = 0f, Inst = 70, T = 00004, Control = 000d, A = 3, B = 0, Y = 3, Data = 0, Store = z, Stat = 0
                7100clk = 0, s = 0, rst = 0, Count = 0f, Inst = 70, T = 00004, Control = 000d, A = 3, B = 0, Y = 3, Data = 0, Store = z, Stat = 0
                7150clk = 1, s = 0, rst = 0, Count = 0f, Inst = 70, T = 00008, Control = 0000, A = 3, B = 0, Y = 3, Data = 0, Store = z, Stat = 0
                7200clk = 0, s = 0, rst = 0, Count = 0f, Inst = 70, T = 00008, Control = 0000, A = 3, B = 0, Y = 3, Data = 0, Store = z, Stat = 0
                7250clk = 1, s = 0, rst = 0, Count = 0f, Inst = 70, T = 00040, Control = 0020, A = 3, B = 0, Y = 3, Data = 0, Store = z, Stat = 0
                7300clk = 0, s = 0, rst = 0, Count = 0f, Inst = 70, T = 00040, Control = 0020, A = 3, B = 0, Y = 3, Data = 0, Store = z, Stat = 0
                7350clk = 1, s = 0, rst = 0, Count = 0f, Inst = 70, T = 08000, Control = 0840, A = 3, B = 0, Y = 3, Data = 0, Store = z, Stat = 0
                7400clk = 0, s = 0, rst = 0, Count = 0f, Inst = 70, T = 08000, Control = 0840, A = 3, B = 0, Y = 3, Data = 0, Store = z, Stat = 0
                7450clk = 1, s = 0, rst = 0, Count = 0f, Inst = 70, T = 00002, Control = 0002, A = 3, B = 0, Y = 3, Data = 3, Store = z, Stat = 0
                7500clk = 0, s = 0, rst = 0, Count = 0f, Inst = 70, T = 00002, Control = 0002, A = 3, B = 0, Y = 3, Data = 3, Store = z, Stat = 0
                7550clk = 1, s = 0, rst = 0, Count = 10, Inst = 80, T = 00004, Control = 000d, A = 3, B = 0, Y = 3, Data = 3, Store = z, Stat = 0
                7600clk = 0, s = 0, rst = 0, Count = 10, Inst = 80, T = 00004, Control = 000d, A = 3, B = 0, Y = 3, Data = 3, Store = z, Stat = 0
                7650clk = 1, s = 0, rst = 0, Count = 10, Inst = 80, T = 00008, Control = 0000, A = 3, B = 0, Y = 3, Data = 3, Store = z, Stat = 0
                7700clk = 0, s = 0, rst = 0, Count = 10, Inst = 80, T = 00008, Control = 0000, A = 3, B = 0, Y = 3, Data = 3, Store = z, Stat = 0
                7750clk = 1, s = 0, rst = 0, Count = 10, Inst = 80, T = 00040, Control = 0020, A = 3, B = 0, Y = 3, Data = 3, Store = z, Stat = 0
                7800clk = 0, s = 0, rst = 0, Count = 10, Inst = 80, T = 00040, Control = 0020, A = 3, B = 0, Y = 3, Data = 3, Store = z, Stat = 0
                7850clk = 1, s = 0, rst = 0, Count = 10, Inst = 80, T = 10000, Control = 0a40, A = 3, B = 0, Y = 3, Data = 3, Store = z, Stat = 0
                7900clk = 0, s = 0, rst = 0, Count = 10, Inst = 80, T = 10000, Control = 0a40, A = 3, B = 0, Y = 3, Data = 3, Store = z, Stat = 0
                7950clk = 1, s = 0, rst = 0, Count = 10, Inst = 80, T = 00002, Control = 0002, A = 3, B = 0, Y = 3, Data = 3, Store = z, Stat = 0
                8000clk = 0, s = 0, rst = 0, Count = 10, Inst = 80, T = 00002, Control = 0002, A = 3, B = 0, Y = 3, Data = 3, Store = z, Stat = 0
                8050clk = 1, s = 0, rst = 0, Count = 11, Inst = 90, T = 00004, Control = 000d, A = 3, B = 0, Y = 3, Data = 3, Store = z, Stat = 0
                8100clk = 0, s = 0, rst = 0, Count = 11, Inst = 90, T = 00004, Control = 000d, A = 3, B = 0, Y = 3, Data = 3, Store = z, Stat = 0
                8150clk = 1, s = 0, rst = 0, Count = 11, Inst = 90, T = 00008, Control = 0000, A = 3, B = 0, Y = 3, Data = 3, Store = z, Stat = 0
                8200clk = 0, s = 0, rst = 0, Count = 11, Inst = 90, T = 00008, Control = 0000, A = 3, B = 0, Y = 3, Data = 3, Store = z, Stat = 0
                8250clk = 1, s = 0, rst = 0, Count = 11, Inst = 90, T = 00040, Control = 0020, A = 3, B = 0, Y = 3, Data = 3, Store = z, Stat = 0
                8300clk = 0, s = 0, rst = 0, Count = 11, Inst = 90, T = 00040, Control = 0020, A = 3, B = 0, Y = 3, Data = 3, Store = z, Stat = 0
                8350clk = 1, s = 0, rst = 0, Count = 11, Inst = 90, T = 20000, Control = 0e40, A = 3, B = 0, Y = c, Data = 3, Store = z, Stat = 0
                8400clk = 0, s = 0, rst = 0, Count = 11, Inst = 90, T = 20000, Control = 0e40, A = 3, B = 0, Y = c, Data = 3, Store = z, Stat = 0
                8450clk = 1, s = 0, rst = 0, Count = 11, Inst = 90, T = 00002, Control = 0002, A = 3, B = 0, Y = 3, Data = c, Store = z, Stat = 2
                8500clk = 0, s = 0, rst = 0, Count = 11, Inst = 90, T = 00002, Control = 0002, A = 3, B = 0, Y = 3, Data = c, Store = z, Stat = 2
                8550clk = 1, s = 0, rst = 0, Count = 12, Inst = 01, T = 00004, Control = 000d, A = 3, B = 0, Y = 3, Data = c, Store = z, Stat = 0
                8600clk = 0, s = 0, rst = 0, Count = 12, Inst = 01, T = 00004, Control = 000d, A = 3, B = 0, Y = 3, Data = c, Store = z, Stat = 0
                8650clk = 1, s = 0, rst = 0, Count = 12, Inst = 01, T = 00008, Control = 0000, A = 3, B = 0, Y = 3, Data = c, Store = z, Stat = 0
                8700clk = 0, s = 0, rst = 0, Count = 12, Inst = 01, T = 00008, Control = 0000, A = 3, B = 0, Y = 3, Data = c, Store = z, Stat = 0
                8750clk = 1, s = 0, rst = 0, Count = 12, Inst = 01, T = 00010, Control = 0010, A = 3, B = 0, Y = 3, Data = c, Store = z, Stat = 0
                8800clk = 0, s = 0, rst = 0, Count = 12, Inst = 01, T = 00010, Control = 0010, A = 3, B = 0, Y = 3, Data = c, Store = z, Stat = 0
                8850clk = 1, s = 0, rst = 0, Count = 12, Inst = 01, T = 00002, Control = 0002, A = 1, B = 0, Y = 1, Data = c, Store = z, Stat = 0
                8900clk = 0, s = 0, rst = 0, Count = 12, Inst = 01, T = 00002, Control = 0002, A = 1, B = 0, Y = 1, Data = c, Store = z, Stat = 0
                8950clk = 1, s = 0, rst = 0, Count = 13, Inst = 02, T = 00004, Control = 000d, A = 1, B = 0, Y = 1, Data = c, Store = z, Stat = 0
                9000clk = 0, s = 0, rst = 0, Count = 13, Inst = 02, T = 00004, Control = 000d, A = 1, B = 0, Y = 1, Data = c, Store = z, Stat = 0
                9050clk = 1, s = 0, rst = 0, Count = 13, Inst = 02, T = 00008, Control = 0000, A = 1, B = 0, Y = 1, Data = c, Store = z, Stat = 0
                9100clk = 0, s = 0, rst = 0, Count = 13, Inst = 02, T = 00008, Control = 0000, A = 1, B = 0, Y = 1, Data = c, Store = z, Stat = 0
                9150clk = 1, s = 0, rst = 0, Count = 13, Inst = 02, T = 00010, Control = 0010, A = 1, B = 0, Y = 1, Data = c, Store = z, Stat = 0
                9200clk = 0, s = 0, rst = 0, Count = 13, Inst = 02, T = 00010, Control = 0010, A = 1, B = 0, Y = 1, Data = c, Store = z, Stat = 0
                9250clk = 1, s = 0, rst = 0, Count = 13, Inst = 02, T = 00002, Control = 0002, A = 2, B = 0, Y = 2, Data = c, Store = z, Stat = 0
                9300clk = 0, s = 0, rst = 0, Count = 13, Inst = 02, T = 00002, Control = 0002, A = 2, B = 0, Y = 2, Data = c, Store = z, Stat = 0
                9350clk = 1, s = 0, rst = 0, Count = 14, Inst = 03, T = 00004, Control = 000d, A = 2, B = 0, Y = 2, Data = c, Store = z, Stat = 0
