CPU/CPU.sim/sim_1/behav/xsim/simulate.log
Time resolution is 1 ps
                   0s = x, clk = 0, rst = 1, Count = xx, Address = zz, Inst = xx, Control = xxxx, A = x, B = x, Y = x, Result = x, Store = x, Stat = z
                  10s = x, clk = 1, rst = 1, Count = xx, Address = zz, Inst = xx, Control = xxxx, A = x, B = x, Y = x, Result = x, Store = x, Stat = z
                  20s = x, clk = 0, rst = 1, Count = xx, Address = zz, Inst = xx, Control = xxxx, A = x, B = x, Y = x, Result = x, Store = x, Stat = z
                  30s = x, clk = 1, rst = 1, Count = xx, Address = zz, Inst = xx, Control = xxxx, A = x, B = x, Y = x, Result = x, Store = x, Stat = z
                  40s = x, clk = 0, rst = 1, Count = xx, Address = zz, Inst = xx, Control = xxxx, A = x, B = x, Y = x, Result = x, Store = x, Stat = z
                  50s = x, clk = 1, rst = 1, Count = xx, Address = zz, Inst = xx, Control = xxxx, A = x, B = x, Y = x, Result = x, Store = x, Stat = z
                  60s = x, clk = 0, rst = 1, Count = xx, Address = zz, Inst = xx, Control = xxxx, A = x, B = x, Y = x, Result = x, Store = x, Stat = z
                  70s = x, clk = 1, rst = 1, Count = xx, Address = zz, Inst = xx, Control = xxxx, A = x, B = x, Y = x, Result = x, Store = x, Stat = z
                  80s = x, clk = 0, rst = 1, Count = xx, Address = zz, Inst = xx, Control = xxxx, A = x, B = x, Y = x, Result = x, Store = x, Stat = z
                  90s = x, clk = 1, rst = 1, Count = xx, Address = zz, Inst = xx, Control = xxxx, A = x, B = x, Y = x, Result = x, Store = x, Stat = z
                 100s = 0, clk = 0, rst = 0, Count = xx, Address = zz, Inst = xx, Control = Xxxx, A = x, B = x, Y = x, Result = x, Store = x, Stat = z
                 110s = 0, clk = 1, rst = 0, Count = xx, Address = zz, Inst = xx, Control = Xxxx, A = x, B = x, Y = x, Result = x, Store = x, Stat = z
                 120s = 0, clk = 0, rst = 0, Count = xx, Address = zz, Inst = xx, Control = Xxxx, A = x, B = x, Y = x, Result = x, Store = x, Stat = z
                 130s = 0, clk = 1, rst = 0, Count = xx, Address = zz, Inst = xx, Control = Xxxx, A = x, B = x, Y = x, Result = x, Store = x, Stat = z
                 140s = 0, clk = 0, rst = 0, Count = xx, Address = zz, Inst = xx, Control = Xxxx, A = x, B = x, Y = x, Result = x, Store = x, Stat = z
                 150s = 0, clk = 1, rst = 0, Count = xx, Address = zz, Inst = xx, Control = Xxxx, A = x, B = x, Y = x, Result = x, Store = x, Stat = z
                 160s = 0, clk = 0, rst = 0, Count = xx, Address = zz, Inst = xx, Control = Xxxx, A = x, B = x, Y = x, Result = x, Store = x, Stat = z
                 170s = 0, clk = 1, rst = 0, Count = xx, Address = zz, Inst = xx, Control = Xxxx, A = x, B = x, Y = x, Result = x, Store = x, Stat = z
                 180s = 0, clk = 0, rst = 0, Count = xx, Address = zz, Inst = xx, Control = Xxxx, A = x, B = x, Y = x, Result = x, Store = x, Stat = z
                 190s = 0, clk = 1, rst = 0, Count = xx, Address = zz, Inst = xx, Control = Xxxx, A = x, B = x, Y = x, Result = x, Store = x, Stat = z
                 200s = 1, clk = 0, rst = 0, Count = 00, Address = zz, Inst = xx, Control = 8000, A = x, B = x, Y = x, Result = x, Store = z, Stat = z
                 210s = 1, clk = 1, rst = 0, Count = 00, Address = zz, Inst = xx, Control = 8000, A = x, B = x, Y = x, Result = x, Store = z, Stat = z
                 220s = 1, clk = 0, rst = 0, Count = 00, Address = zz, Inst = xx, Control = 8000, A = x, B = x, Y = x, Result = x, Store = z, Stat = z
                 230s = 1, clk = 1, rst = 0, Count = 00, Address = zz, Inst = xx, Control = 8000, A = x, B = x, Y = x, Result = x, Store = z, Stat = z
                 240s = 1, clk = 0, rst = 0, Count = 00, Address = zz, Inst = xx, Control = 8000, A = x, B = x, Y = x, Result = x, Store = z, Stat = z
                 250s = 1, clk = 1, rst = 0, Count = 00, Address = zz, Inst = xx, Control = 8000, A = x, B = x, Y = x, Result = x, Store = z, Stat = z
                 260s = 1, clk = 0, rst = 0, Count = 00, Address = zz, Inst = xx, Control = 8000, A = x, B = x, Y = x, Result = x, Store = z, Stat = z
                 270s = 1, clk = 1, rst = 0, Count = 00, Address = zz, Inst = xx, Control = 8000, A = x, B = x, Y = x, Result = x, Store = z, Stat = z
                 280s = 1, clk = 0, rst = 0, Count = 00, Address = zz, Inst = xx, Control = 8000, A = x, B = x, Y = x, Result = x, Store = z, Stat = z
                 290s = 1, clk = 1, rst = 0, Count = 00, Address = zz, Inst = xx, Control = 8000, A = x, B = x, Y = x, Result = x, Store = z, Stat = z
                 300s = 1, clk = 0, rst = 0, Count = 00, Address = zz, Inst = xx, Control = 8000, A = x, B = x, Y = x, Result = x, Store = z, Stat = z
                 310s = 1, clk = 1, rst = 0, Count = 00, Address = zz, Inst = xx, Control = 8000, A = x, B = x, Y = x, Result = x, Store = z, Stat = z
                 320s = 1, clk = 0, rst = 0, Count = 00, Address = zz, Inst = xx, Control = 8000, A = x, B = x, Y = x, Result = x, Store = z, Stat = z
                 330s = 1, clk = 1, rst = 0, Count = 00, Address = zz, Inst = xx, Control = 8000, A = x, B = x, Y = x, Result = x, Store = z, Stat = z
                 340s = 1, clk = 0, rst = 0, Count = 00, Address = zz, Inst = xx, Control = 8000, A = x, B = x, Y = x, Result = x, Store = z, Stat = z
                 350s = 1, clk = 1, rst = 0, Count = 00, Address = zz, Inst = xx, Control = 8000, A = x, B = x, Y = x, Result = x, Store = z, Stat = z
                 360s = 1, clk = 0, rst = 0, Count = 00, Address = zz, Inst = xx, Control = 8000, A = x, B = x, Y = x, Result = x, Store = z, Stat = z
                 370s = 1, clk = 1, rst = 0, Count = 00, Address = zz, Inst = xx, Control = 8000, A = x, B = x, Y = x, Result = x, Store = z, Stat = z
                 380s = 1, clk = 0, rst = 0, Count = 00, Address = zz, Inst = xx, Control = 8000, A = x, B = x, Y = x, Result = x, Store = z, Stat = z
                 390s = 1, clk = 1, rst = 0, Count = 00, Address = zz, Inst = xx, Control = 8000, A = x, B = x, Y = x, Result = x, Store = z, Stat = z
                 400s = 1, clk = 0, rst = 0, Count = 00, Address = zz, Inst = xx, Control = 8000, A = x, B = x, Y = x, Result = x, Store = z, Stat = z
                 410s = 1, clk = 1, rst = 0, Count = 00, Address = zz, Inst = xx, Control = 8000, A = x, B = x, Y = x, Result = x, Store = z, Stat = z
                 420s = 1, clk = 0, rst = 0, Count = 00, Address = zz, Inst = xx, Control = 8000, A = x, B = x, Y = x, Result = x, Store = z, Stat = z
                 430s = 1, clk = 1, rst = 0, Count = 00, Address = zz, Inst = xx, Control = 8000, A = x, B = x, Y = x, Result = x, Store = z, Stat = z
                 440s = 1, clk = 0, rst = 0, Count = 00, Address = zz, Inst = xx, Control = 8000, A = x, B = x, Y = x, Result = x, Store = z, Stat = z
                 450s = 1, clk = 1, rst = 0, Count = 00, Address = zz, Inst = xx, Control = 8000, A = x, B = x, Y = x, Result = x, Store = z, Stat = z
                 460s = 1, clk = 0, rst = 0, Count = 00, Address = zz, Inst = xx, Control = 8000, A = x, B = x, Y = x, Result = x, Store = z, Stat = z
                 470s = 1, clk = 1, rst = 0, Count = 00, Address = zz, Inst = xx, Control = 8000, A = x, B = x, Y = x, Result = x, Store = z, Stat = z
                 480s = 1, clk = 0, rst = 0, Count = 00, Address = zz, Inst = xx, Control = 8000, A = x, B = x, Y = x, Result = x, Store = z, Stat = z
                 490s = 1, clk = 1, rst = 0, Count = 00, Address = zz, Inst = xx, Control = 8000, A = x, B = x, Y = x, Result = x, Store = z, Stat = z
                 500s = 0, clk = 0, rst = 0, Count = 00, Address = zz, Inst = xx, Control = 0000, A = x, B = x, Y = x, Result = x, Store = z, Stat = z
                 510s = 0, clk = 1, rst = 0, Count = 00, Address = zz, Inst = xx, Control = 0002, A = x, B = x, Y = x, Result = x, Store = z, Stat = z
                 520s = 0, clk = 0, rst = 0, Count = 00, Address = zz, Inst = xx, Control = 0002, A = x, B = x, Y = x, Result = x, Store = z, Stat = z
                 530s = 0, clk = 1, rst = 0, Count = 01, Address = zz, Inst = xx, Control = 000d, A = x, B = x, Y = x, Result = x, Store = z, Stat = z
                 540s = 0, clk = 0, rst = 0, Count = 01, Address = zz, Inst = xx, Control = 000d, A = x, B = x, Y = x, Result = x, Store = z, Stat = z
                 550s = 0, clk = 1, rst = 0, Count = 01, Address = zz, Inst = xx, Control = 0000, A = x, B = x, Y = x, Result = x, Store = z, Stat = z
                 560s = 0, clk = 0, rst = 0, Count = 01, Address = zz, Inst = xx, Control = 0000, A = x, B = x, Y = x, Result = x, Store = z, Stat = z
                 570s = 0, clk = 1, rst = 0, Count = 01, Address = zz, Inst = xx, Control = XXXX, A = x, B = x, Y = x, Result = x, Store = z, Stat = z
                 580s = 0, clk = 0, rst = 0, Count = 01, Address = zz, Inst = xx, Control = XXXX, A = x, B = x, Y = x, Result = x, Store = z, Stat = z
                 590s = 0, clk = 1, rst = 0, Count = 01, Address = zz, Inst = xx, Control = 0XXX, A = x, B = x, Y = x, Result = x, Store = x, Stat = z
                 600s = 0, clk = 0, rst = 0, Count = 01, Address = zz, Inst = xx, Control = 0XXX, A = x, B = x, Y = x, Result = x, Store = x, Stat = z
                 610s = 0, clk = 1, rst = 0, Count = 02, Address = zz, Inst = xx, Control = 000x, A = x, B = x, Y = x, Result = x, Store = z, Stat = z
                 620s = 0, clk = 0, rst = 0, Count = 02, Address = zz, Inst = xx, Control = 000x, A = x, B = x, Y = x, Result = x, Store = z, Stat = z
                 630s = 0, clk = 1, rst = 0, Count = 02, Address = zz, Inst = xx, Control = 000X, A = x, B = x, Y = x, Result = x, Store = z, Stat = z
                 640s = 0, clk = 0, rst = 0, Count = 02, Address = zz, Inst = xx, Control = 000X, A = x, B = x, Y = x, Result = x, Store = z, Stat = z
                 650s = 0, clk = 1, rst = 0, Count = 02, Address = zz, Inst = xx, Control = XXXX, A = x, B = x, Y = x, Result = x, Store = z, Stat = z
                 660s = 0, clk = 0, rst = 0, Count = 02, Address = zz, Inst = xx, Control = XXXX, A = x, B = x, Y = x, Result = x, Store = z, Stat = z
                 670s = 0, clk = 1, rst = 0, Count = 02, Address = zz, Inst = xx, Control = XxxX, A = x, B = x, Y = x, Result = x, Store = x, Stat = z
                 680s = 0, clk = 0, rst = 0, Count = 02, Address = zz, Inst = xx, Control = XxxX, A = x, B = x, Y = x, Result = x, Store = x, Stat = z
                 690s = 0, clk = 1, rst = 0, Count = 03, Address = zz, Inst = xx, Control = 0XXx, A = x, B = x, Y = x, Result = x, Store = x, Stat = z
                 700s = 0, clk = 0, rst = 0, Count = 03, Address = zz, Inst = xx, Control = 0XXx, A = x, B = x, Y = x, Result = x, Store = x, Stat = z
                 710s = 0, clk = 1, rst = 0, Count = 03, Address = zz, Inst = xx, Control = 000x, A = x, B = x, Y = x, Result = x, Store = z, Stat = z
                 720s = 0, clk = 0, rst = 0, Count = 03, Address = zz, Inst = xx, Control = 000x, A = x, B = x, Y = x, Result = x, Store = z, Stat = z
                 730s = 0, clk = 1, rst = 0, Count = 03, Address = zz, Inst = xx, Control = XXXx, A = x, B = x, Y = x, Result = x, Store = z, Stat = z
                 740s = 0, clk = 0, rst = 0, Count = 03, Address = zz, Inst = xx, Control = XXXx, A = x, B = x, Y = x, Result = x, Store = z, Stat = z
                 750s = 0, clk = 1, rst = 0, Count = 03, Address = zz, Inst = xx, Control = XxxX, A = x, B = x, Y = x, Result = x, Store = x, Stat = z
                 760s = 0, clk = 0, rst = 0, Count = 03, Address = zz, Inst = xx, Control = XxxX, A = x, B = x, Y = x, Result = x, Store = x, Stat = z
                 770s = 0, clk = 1, rst = 0, Count = 04, Address = zz, Inst = xx, Control = Xxxx, A = x, B = x, Y = x, Result = x, Store = x, Stat = z
                 780s = 0, clk = 0, rst = 0, Count = 04, Address = zz, Inst = xx, Control = Xxxx, A = x, B = x, Y = x, Result = x, Store = x, Stat = z
                 790s = 0, clk = 1, rst = 0, Count = 04, Address = zz, Inst = xx, Control = 0XXx, A = x, B = x, Y = x, Result = x, Store = x, Stat = z
                 800s = 0, clk = 0, rst = 0, Count = 04, Address = zz, Inst = xx, Control = 0XXx, A = x, B = x, Y = x, Result = x, Store = x, Stat = z
                 810s = 0, clk = 1, rst = 0, Count = 04, Address = zz, Inst = xx, Control = XXXx, A = x, B = x, Y = x, Result = x, Store = z, Stat = z
                 820s = 0, clk = 0, rst = 0, Count = 04, Address = zz, Inst = xx, Control = XXXx, A = x, B = x, Y = x, Result = x, Store = z, Stat = z
                 830s = 0, clk = 1, rst = 0, Count = 04, Address = zz, Inst = xx, Control = Xxxx, A = x, B = x, Y = x, Result = x, Store = x, Stat = z
                 840s = 0, clk = 0, rst = 0, Count = 04, Address = zz, Inst = xx, Control = Xxxx, A = x, B = x, Y = x, Result = x, Store = x, Stat = z
                 850s = 0, clk = 1, rst = 0, Count = 04, Address = zz, Inst = xx, Control = Xxxx, A = x, B = x, Y = x, Result = x, Store = x, Stat = z
                 860s = 0, clk = 0, rst = 0, Count = 04, Address = zz, Inst = xx, Control = Xxxx, A = x, B = x, Y = x, Result = x, Store = x, Stat = z
                 870s = 0, clk = 1, rst = 0, Count = 04, Address = zz, Inst = xx, Control = Xxxx, A = x, B = x, Y = x, Result = x, Store = x, Stat = z
                 880s = 0, clk = 0, rst = 0, Count = 04, Address = zz, Inst = xx, Control = Xxxx, A = x, B = x, Y = x, Result = x, Store = x, Stat = z
                 890s = 0, clk = 1, rst = 0, Count = 04, Address = zz, Inst = xx, Control = Xxxx, A = x, B = x, Y = x, Result = x, Store = x, Stat = z
                 900s = 0, clk = 0, rst = 0, Count = 04, Address = zz, Inst = xx, Control = Xxxx, A = x, B = x, Y = x, Result = x, Store = x, Stat = z
                 910s = 0, clk = 1, rst = 0, Count = 04, Address = zz, Inst = xx, Control = Xxxx, A = x, B = x, Y = x, Result = x, Store = x, Stat = z
                 920s = 0, clk = 0, rst = 0, Count = 04, Address = zz, Inst = xx, Control = Xxxx, A = x, B = x, Y = x, Result = x, Store = x, Stat = z
                 930s = 0, clk = 1, rst = 0, Count = 04, Address = zz, Inst = xx, Control = Xxxx, A = x, B = x, Y = x, Result = x, Store = x, Stat = z
                 940s = 0, clk = 0, rst = 0, Count = 04, Address = zz, Inst = xx, Control = Xxxx, A = x, B = x, Y = x, Result = x, Store = x, Stat = z
                 950s = 0, clk = 1, rst = 0, Count = 04, Address = zz, Inst = xx, Control = Xxxx, A = x, B = x, Y = x, Result = x, Store = x, Stat = z
                 960s = 0, clk = 0, rst = 0, Count = 04, Address = zz, Inst = xx, Control = Xxxx, A = x, B = x, Y = x, Result = x, Store = x, Stat = z
                 970s = 0, clk = 1, rst = 0, Count = 04, Address = zz, Inst = xx, Control = Xxxx, A = x, B = x, Y = x, Result = x, Store = x, Stat = z
                 980s = 0, clk = 0, rst = 0, Count = 04, Address = zz, Inst = xx, Control = Xxxx, A = x, B = x, Y = x, Result = x, Store = x, Stat = z
                 990s = 0, clk = 1, rst = 0, Count = 04, Address = zz, Inst = xx, Control = Xxxx, A = x, B = x, Y = x, Result = x, Store = x, Stat = z
                1000s = 0, clk = 0, rst = 0, Count = 04, Address = zz, Inst = xx, Control = Xxxx, A = x, B = x, Y = x, Result = x, Store = x, Stat = z
