Reg_File/Reg_File.sim/sim_1/synth/timing/xsim/simulate.log
Time resolution is 1 ps
                   0Data = x, Mode = xx, D = xx, M = xx, En = 10100, F = xxx, Cin = x, clk = 0, Y = x,  A = xxxx, B = xxxx
                   3Data = x, Mode = xx, D = xx, M = xx, En = 10100, F = xxx, Cin = x, clk = 0, Y = x,  A = 0000, B = 0000
                   5Data = x, Mode = xx, D = xx, M = xx, En = 10100, F = xxx, Cin = x, clk = 1, Y = x,  A = 0000, B = 0000
                  10Data = x, Mode = xx, D = xx, M = xx, En = 10100, F = xxx, Cin = x, clk = 0, Y = x,  A = 0000, B = 0000
                  15Data = x, Mode = xx, D = xx, M = xx, En = 10100, F = xxx, Cin = x, clk = 1, Y = x,  A = 0000, B = 0000
                  20Data = x, Mode = xx, D = xx, M = xx, En = 10100, F = xxx, Cin = x, clk = 0, Y = x,  A = 0000, B = 0000
                  25Data = x, Mode = xx, D = xx, M = xx, En = 10100, F = xxx, Cin = x, clk = 1, Y = x,  A = 0000, B = 0000
                  30Data = x, Mode = xx, D = xx, M = xx, En = 10100, F = xxx, Cin = x, clk = 0, Y = x,  A = 0000, B = 0000
                  35Data = x, Mode = xx, D = xx, M = xx, En = 10100, F = xxx, Cin = x, clk = 1, Y = x,  A = 0000, B = 0000
                  40Data = x, Mode = xx, D = xx, M = xx, En = 10100, F = xxx, Cin = x, clk = 0, Y = x,  A = 0000, B = 0000
                  45Data = x, Mode = xx, D = xx, M = xx, En = 10100, F = xxx, Cin = x, clk = 1, Y = x,  A = 0000, B = 0000
                  50Data = x, Mode = xx, D = xx, M = xx, En = 10100, F = xxx, Cin = x, clk = 0, Y = x,  A = 0000, B = 0000
                  55Data = x, Mode = xx, D = xx, M = xx, En = 10100, F = xxx, Cin = x, clk = 1, Y = x,  A = 0000, B = 0000
                  60Data = x, Mode = xx, D = xx, M = xx, En = 10100, F = xxx, Cin = x, clk = 0, Y = x,  A = 0000, B = 0000
                  65Data = x, Mode = xx, D = xx, M = xx, En = 10100, F = xxx, Cin = x, clk = 1, Y = x,  A = 0000, B = 0000
                  70Data = x, Mode = xx, D = xx, M = xx, En = 10100, F = xxx, Cin = x, clk = 0, Y = x,  A = 0000, B = 0000
                  75Data = x, Mode = xx, D = xx, M = xx, En = 10100, F = xxx, Cin = x, clk = 1, Y = x,  A = 0000, B = 0000
                  80Data = x, Mode = xx, D = xx, M = xx, En = 10100, F = xxx, Cin = x, clk = 0, Y = x,  A = 0000, B = 0000
                  85Data = x, Mode = xx, D = xx, M = xx, En = 10100, F = xxx, Cin = x, clk = 1, Y = x,  A = 0000, B = 0000
                  90Data = x, Mode = xx, D = xx, M = xx, En = 10100, F = xxx, Cin = x, clk = 0, Y = x,  A = 0000, B = 0000
                  95Data = x, Mode = xx, D = xx, M = xx, En = 10100, F = xxx, Cin = x, clk = 1, Y = x,  A = 0000, B = 0000
                 100Data = 1, Mode = 11, D = 00, M = xx, En = 10100, F = xxx, Cin = x, clk = 0, Y = x,  A = 0000, B = 0000
                 105Data = 1, Mode = 11, D = 00, M = xx, En = 10100, F = xxx, Cin = x, clk = 1, Y = x,  A = 0000, B = 0000
                 110Data = 1, Mode = 11, D = 00, M = xx, En = 10100, F = xxx, Cin = x, clk = 0, Y = x,  A = 0000, B = 0000
                 115Data = 1, Mode = 11, D = 00, M = xx, En = 10100, F = xxx, Cin = x, clk = 1, Y = x,  A = 0000, B = 0000
                 120Data = 1, Mode = 11, D = 00, M = xx, En = 10100, F = xxx, Cin = x, clk = 0, Y = x,  A = 0000, B = 0000
                 125Data = 1, Mode = 11, D = 00, M = xx, En = 10100, F = xxx, Cin = x, clk = 1, Y = x,  A = 0000, B = 0000
                 130Data = 1, Mode = 11, D = 00, M = xx, En = 10100, F = xxx, Cin = x, clk = 0, Y = x,  A = 0000, B = 0000
                 135Data = 1, Mode = 11, D = 00, M = xx, En = 10100, F = xxx, Cin = x, clk = 1, Y = x,  A = 0000, B = 0000
                 140Data = 1, Mode = 11, D = 00, M = xx, En = 10100, F = xxx, Cin = x, clk = 0, Y = x,  A = 0000, B = 0000
                 145Data = 1, Mode = 11, D = 00, M = xx, En = 10100, F = xxx, Cin = x, clk = 1, Y = x,  A = 0000, B = 0000
                 150Data = 2, Mode = 11, D = 01, M = xx, En = 10100, F = xxx, Cin = x, clk = 0, Y = x,  A = 0000, B = 0000
                 155Data = 2, Mode = 11, D = 01, M = xx, En = 10100, F = xxx, Cin = x, clk = 1, Y = x,  A = 0000, B = 0000
                 160Data = 2, Mode = 11, D = 01, M = xx, En = 10100, F = xxx, Cin = x, clk = 0, Y = x,  A = 0000, B = 0000
                 165Data = 2, Mode = 11, D = 01, M = xx, En = 10100, F = xxx, Cin = x, clk = 1, Y = x,  A = 0000, B = 0000
                 170Data = 2, Mode = 11, D = 01, M = xx, En = 10100, F = xxx, Cin = x, clk = 0, Y = x,  A = 0000, B = 0000
                 175Data = 2, Mode = 11, D = 01, M = xx, En = 10100, F = xxx, Cin = x, clk = 1, Y = x,  A = 0000, B = 0000
                 180Data = 3, Mode = 11, D = 10, M = xx, En = 10100, F = xxx, Cin = x, clk = 0, Y = x,  A = 0000, B = 0000
                 185Data = 3, Mode = 11, D = 10, M = xx, En = 10100, F = xxx, Cin = x, clk = 1, Y = x,  A = 0000, B = 0000
                 190Data = 3, Mode = 11, D = 10, M = xx, En = 10100, F = xxx, Cin = x, clk = 0, Y = x,  A = 0000, B = 0000
                 195Data = 3, Mode = 11, D = 10, M = xx, En = 10100, F = xxx, Cin = x, clk = 1, Y = x,  A = 0000, B = 0000
                 200Data = 3, Mode = 11, D = 10, M = xx, En = 10100, F = xxx, Cin = x, clk = 0, Y = x,  A = 0000, B = 0000
                 205Data = 3, Mode = 11, D = 10, M = xx, En = 10100, F = xxx, Cin = x, clk = 1, Y = x,  A = 0000, B = 0000
                 210Data = 4, Mode = 11, D = 11, M = xx, En = 10100, F = xxx, Cin = x, clk = 0, Y = x,  A = 0000, B = 0000
                 215Data = 4, Mode = 11, D = 11, M = xx, En = 10100, F = xxx, Cin = x, clk = 1, Y = x,  A = 0000, B = 0000
                 220Data = 4, Mode = 11, D = 11, M = xx, En = 10100, F = xxx, Cin = x, clk = 0, Y = x,  A = 0000, B = 0000
                 225Data = 4, Mode = 11, D = 11, M = xx, En = 10100, F = xxx, Cin = x, clk = 1, Y = x,  A = 0000, B = 0000
                 230Data = 4, Mode = 11, D = 11, M = xx, En = 10100, F = xxx, Cin = x, clk = 0, Y = x,  A = 0000, B = 0000
                 235Data = 4, Mode = 11, D = 11, M = xx, En = 10100, F = xxx, Cin = x, clk = 1, Y = x,  A = 0000, B = 0000
                 240Data = 4, Mode = 11, D = 11, M = 00, En = 01001, F = 000, Cin = 0, clk = 0, Y = x,  A = 0000, B = 0000
                 245Data = 4, Mode = 11, D = 11, M = 00, En = 01001, F = 000, Cin = 0, clk = 0, Y = X,  A = 0000, B = 0000
                 245Data = 4, Mode = 11, D = 11, M = 00, En = 01001, F = 000, Cin = 0, clk = 1, Y = X,  A = 0000, B = 0000
                 245Data = 4, Mode = 11, D = 11, M = 00, En = 01001, F = 000, Cin = 0, clk = 1, Y = X,  A = 0000, B = 0000
                 246Data = 4, Mode = 11, D = 11, M = 00, En = 01001, F = 000, Cin = 0, clk = 1, Y = X,  A = 0000, B = 0000
                 246Data = 4, Mode = 11, D = 11, M = 00, En = 01001, F = 000, Cin = 0, clk = 1, Y = 0,  A = 0000, B = 0000
                 250Data = 4, Mode = 11, D = 11, M = 00, En = 01001, F = 000, Cin = 0, clk = 0, Y = 0,  A = 0000, B = 0000
                 251Data = 4, Mode = 11, D = 11, M = 00, En = 01001, F = 000, Cin = 0, clk = 0, Y = 0,  A = 0001, B = 0000
                 251Data = 4, Mode = 11, D = 11, M = 00, En = 01001, F = 000, Cin = 0, clk = 0, Y = 1,  A = 0001, B = 0000
                 255Data = 4, Mode = 11, D = 11, M = 00, En = 01001, F = 000, Cin = 0, clk = 1, Y = 1,  A = 0001, B = 0000
                 260Data = 4, Mode = 11, D = 11, M = 00, En = 01001, F = 000, Cin = 0, clk = 0, Y = 1,  A = 0001, B = 0000
                 265Data = 4, Mode = 11, D = 11, M = 00, En = 01001, F = 000, Cin = 0, clk = 1, Y = 1,  A = 0001, B = 0000
                 270Data = 4, Mode = 11, D = 11, M = 00, En = 01001, F = 000, Cin = 0, clk = 0, Y = 1,  A = 0001, B = 0000
                 275Data = 4, Mode = 11, D = 11, M = 00, En = 01001, F = 000, Cin = 0, clk = 1, Y = 1,  A = 0001, B = 0000
                 280Data = 4, Mode = 11, D = 11, M = 00, En = 01001, F = 000, Cin = 0, clk = 0, Y = 1,  A = 0001, B = 0000
                 285Data = 4, Mode = 11, D = 11, M = 00, En = 01001, F = 000, Cin = 0, clk = 1, Y = 1,  A = 0001, B = 0000
                 290Data = 4, Mode = 11, D = 11, M = 00, En = 01001, F = 000, Cin = 0, clk = 0, Y = 1,  A = 0001, B = 0000
                 295Data = 4, Mode = 11, D = 11, M = 00, En = 01001, F = 000, Cin = 0, clk = 1, Y = 1,  A = 0001, B = 0000
                 300Data = 4, Mode = 11, D = 11, M = 00, En = 01001, F = 000, Cin = 0, clk = 0, Y = 1,  A = 0001, B = 0000
                 305Data = 4, Mode = 11, D = 11, M = 00, En = 01001, F = 000, Cin = 0, clk = 1, Y = 1,  A = 0001, B = 0000
                 310Data = 4, Mode = 11, D = 11, M = 00, En = 01001, F = 000, Cin = 0, clk = 0, Y = 1,  A = 0001, B = 0000
                 315Data = 4, Mode = 11, D = 11, M = 00, En = 01001, F = 000, Cin = 0, clk = 1, Y = 1,  A = 0001, B = 0000
                 320Data = 4, Mode = 11, D = 11, M = 00, En = 01001, F = 000, Cin = 0, clk = 0, Y = 1,  A = 0001, B = 0000
                 325Data = 4, Mode = 11, D = 11, M = 00, En = 01001, F = 000, Cin = 0, clk = 1, Y = 1,  A = 0001, B = 0000
                 330Data = 4, Mode = 11, D = 11, M = 00, En = 01001, F = 000, Cin = 0, clk = 0, Y = 1,  A = 0001, B = 0000
                 335Data = 4, Mode = 11, D = 11, M = 00, En = 01001, F = 000, Cin = 0, clk = 1, Y = 1,  A = 0001, B = 0000
                 340Data = 4, Mode = 11, D = 11, M = 01, En = 01001, F = 000, Cin = 0, clk = 0, Y = 1,  A = 0001, B = 0000
                 345Data = 4, Mode = 11, D = 11, M = 01, En = 01001, F = 000, Cin = 0, clk = 1, Y = 1,  A = 0001, B = 0000
                 350Data = 4, Mode = 11, D = 11, M = 01, En = 01001, F = 000, Cin = 0, clk = 0, Y = 1,  A = 0001, B = 0000
                 351Data = 4, Mode = 11, D = 11, M = 01, En = 01001, F = 000, Cin = 0, clk = 0, Y = 1,  A = 0010, B = 0000
                 351Data = 4, Mode = 11, D = 11, M = 01, En = 01001, F = 000, Cin = 0, clk = 0, Y = 0,  A = 0010, B = 0000
                 352Data = 4, Mode = 11, D = 11, M = 01, En = 01001, F = 000, Cin = 0, clk = 0, Y = 2,  A = 0010, B = 0000
                 355Data = 4, Mode = 11, D = 11, M = 01, En = 01001, F = 000, Cin = 0, clk = 1, Y = 2,  A = 0010, B = 0000
                 360Data = 4, Mode = 11, D = 11, M = 01, En = 01001, F = 000, Cin = 0, clk = 0, Y = 2,  A = 0010, B = 0000
                 365Data = 4, Mode = 11, D = 11, M = 01, En = 01001, F = 000, Cin = 0, clk = 1, Y = 2,  A = 0010, B = 0000
                 370Data = 4, Mode = 11, D = 11, M = 01, En = 01001, F = 000, Cin = 0, clk = 0, Y = 2,  A = 0010, B = 0000
                 375Data = 4, Mode = 11, D = 11, M = 01, En = 01001, F = 000, Cin = 0, clk = 1, Y = 2,  A = 0010, B = 0000
                 380Data = 4, Mode = 11, D = 11, M = 01, En = 01001, F = 000, Cin = 0, clk = 0, Y = 2,  A = 0010, B = 0000
                 385Data = 4, Mode = 11, D = 11, M = 01, En = 01001, F = 000, Cin = 0, clk = 1, Y = 2,  A = 0010, B = 0000
                 390Data = 4, Mode = 11, D = 11, M = 01, En = 01001, F = 000, Cin = 0, clk = 0, Y = 2,  A = 0010, B = 0000
                 395Data = 4, Mode = 11, D = 11, M = 01, En = 01001, F = 000, Cin = 0, clk = 1, Y = 2,  A = 0010, B = 0000
                 400Data = 4, Mode = 11, D = 11, M = 01, En = 01001, F = 000, Cin = 0, clk = 0, Y = 2,  A = 0010, B = 0000
                 405Data = 4, Mode = 11, D = 11, M = 01, En = 01001, F = 000, Cin = 0, clk = 1, Y = 2,  A = 0010, B = 0000
                 410Data = 4, Mode = 11, D = 11, M = 01, En = 01001, F = 000, Cin = 0, clk = 0, Y = 2,  A = 0010, B = 0000
                 415Data = 4, Mode = 11, D = 11, M = 01, En = 01001, F = 000, Cin = 0, clk = 1, Y = 2,  A = 0010, B = 0000
                 420Data = 4, Mode = 11, D = 11, M = 01, En = 01001, F = 000, Cin = 0, clk = 0, Y = 2,  A = 0010, B = 0000
                 425Data = 4, Mode = 11, D = 11, M = 01, En = 01001, F = 000, Cin = 0, clk = 1, Y = 2,  A = 0010, B = 0000
                 430Data = 4, Mode = 11, D = 11, M = 01, En = 01001, F = 000, Cin = 0, clk = 0, Y = 2,  A = 0010, B = 0000
                 435Data = 4, Mode = 11, D = 11, M = 01, En = 01001, F = 000, Cin = 0, clk = 1, Y = 2,  A = 0010, B = 0000
                 440Data = 4, Mode = 11, D = 11, M = 10, En = 01001, F = 000, Cin = 0, clk = 0, Y = 2,  A = 0010, B = 0000
                 445Data = 4, Mode = 11, D = 11, M = 10, En = 01001, F = 000, Cin = 0, clk = 1, Y = 2,  A = 0010, B = 0000
                 450Data = 4, Mode = 11, D = 11, M = 10, En = 01001, F = 000, Cin = 0, clk = 0, Y = 2,  A = 0010, B = 0000
                 451Data = 4, Mode = 11, D = 11, M = 10, En = 01001, F = 000, Cin = 0, clk = 0, Y = 2,  A = 0011, B = 0000
                 451Data = 4, Mode = 11, D = 11, M = 10, En = 01001, F = 000, Cin = 0, clk = 0, Y = 3,  A = 0011, B = 0000
                 455Data = 4, Mode = 11, D = 11, M = 10, En = 01001, F = 000, Cin = 0, clk = 1, Y = 3,  A = 0011, B = 0000
                 460Data = 4, Mode = 11, D = 11, M = 10, En = 01001, F = 000, Cin = 0, clk = 0, Y = 3,  A = 0011, B = 0000
                 465Data = 4, Mode = 11, D = 11, M = 10, En = 01001, F = 000, Cin = 0, clk = 1, Y = 3,  A = 0011, B = 0000
                 470Data = 4, Mode = 11, D = 11, M = 10, En = 01001, F = 000, Cin = 0, clk = 0, Y = 3,  A = 0011, B = 0000
                 475Data = 4, Mode = 11, D = 11, M = 10, En = 01001, F = 000, Cin = 0, clk = 1, Y = 3,  A = 0011, B = 0000
                 480Data = 4, Mode = 11, D = 11, M = 10, En = 01001, F = 000, Cin = 0, clk = 0, Y = 3,  A = 0011, B = 0000
                 485Data = 4, Mode = 11, D = 11, M = 10, En = 01001, F = 000, Cin = 0, clk = 1, Y = 3,  A = 0011, B = 0000
                 490Data = 4, Mode = 11, D = 11, M = 10, En = 01001, F = 000, Cin = 0, clk = 0, Y = 3,  A = 0011, B = 0000
                 495Data = 4, Mode = 11, D = 11, M = 10, En = 01001, F = 000, Cin = 0, clk = 1, Y = 3,  A = 0011, B = 0000
                 500Data = 4, Mode = 11, D = 11, M = 10, En = 01001, F = 000, Cin = 0, clk = 0, Y = 3,  A = 0011, B = 0000
                 505Data = 4, Mode = 11, D = 11, M = 10, En = 01001, F = 000, Cin = 0, clk = 1, Y = 3,  A = 0011, B = 0000
                 510Data = 4, Mode = 11, D = 11, M = 10, En = 01001, F = 000, Cin = 0, clk = 0, Y = 3,  A = 0011, B = 0000
                 515Data = 4, Mode = 11, D = 11, M = 10, En = 01001, F = 000, Cin = 0, clk = 1, Y = 3,  A = 0011, B = 0000
                 520Data = 4, Mode = 11, D = 11, M = 10, En = 01001, F = 000, Cin = 0, clk = 0, Y = 3,  A = 0011, B = 0000
                 525Data = 4, Mode = 11, D = 11, M = 10, En = 01001, F = 000, Cin = 0, clk = 1, Y = 3,  A = 0011, B = 0000
                 530Data = 4, Mode = 11, D = 11, M = 10, En = 01001, F = 000, Cin = 0, clk = 0, Y = 3,  A = 0011, B = 0000
                 535Data = 4, Mode = 11, D = 11, M = 10, En = 01001, F = 000, Cin = 0, clk = 1, Y = 3,  A = 0011, B = 0000
                 540Data = 4, Mode = 11, D = 11, M = 11, En = 01001, F = 000, Cin = 0, clk = 0, Y = 3,  A = 0011, B = 0000
                 545Data = 4, Mode = 11, D = 11, M = 11, En = 01001, F = 000, Cin = 0, clk = 1, Y = 3,  A = 0011, B = 0000
                 550Data = 4, Mode = 11, D = 11, M = 11, En = 01001, F = 000, Cin = 0, clk = 0, Y = 3,  A = 0011, B = 0000
                 551Data = 4, Mode = 11, D = 11, M = 11, En = 01001, F = 000, Cin = 0, clk = 0, Y = 3,  A = 0100, B = 0000
                 551Data = 4, Mode = 11, D = 11, M = 11, En = 01001, F = 000, Cin = 0, clk = 0, Y = 2,  A = 0100, B = 0000
                 552Data = 4, Mode = 11, D = 11, M = 11, En = 01001, F = 000, Cin = 0, clk = 0, Y = 4,  A = 0100, B = 0000
                 555Data = 4, Mode = 11, D = 11, M = 11, En = 01001, F = 000, Cin = 0, clk = 1, Y = 4,  A = 0100, B = 0000
                 560Data = 4, Mode = 11, D = 11, M = 11, En = 01001, F = 000, Cin = 0, clk = 0, Y = 4,  A = 0100, B = 0000
                 565Data = 4, Mode = 11, D = 11, M = 11, En = 01001, F = 000, Cin = 0, clk = 1, Y = 4,  A = 0100, B = 0000
                 570Data = 4, Mode = 11, D = 11, M = 11, En = 01001, F = 000, Cin = 0, clk = 0, Y = 4,  A = 0100, B = 0000
                 575Data = 4, Mode = 11, D = 11, M = 11, En = 01001, F = 000, Cin = 0, clk = 1, Y = 4,  A = 0100, B = 0000
                 580Data = 4, Mode = 11, D = 11, M = 11, En = 01001, F = 000, Cin = 0, clk = 0, Y = 4,  A = 0100, B = 0000
                 585Data = 4, Mode = 11, D = 11, M = 11, En = 01001, F = 000, Cin = 0, clk = 1, Y = 4,  A = 0100, B = 0000
                 590Data = 4, Mode = 11, D = 11, M = 11, En = 01001, F = 000, Cin = 0, clk = 0, Y = 4,  A = 0100, B = 0000
                 595Data = 4, Mode = 11, D = 11, M = 11, En = 01001, F = 000, Cin = 0, clk = 1, Y = 4,  A = 0100, B = 0000
                 600Data = 4, Mode = 11, D = 11, M = 11, En = 01001, F = 000, Cin = 0, clk = 0, Y = 4,  A = 0100, B = 0000
                 605Data = 4, Mode = 11, D = 11, M = 11, En = 01001, F = 000, Cin = 0, clk = 1, Y = 4,  A = 0100, B = 0000
                 610Data = 4, Mode = 11, D = 11, M = 11, En = 01001, F = 000, Cin = 0, clk = 0, Y = 4,  A = 0100, B = 0000
                 615Data = 4, Mode = 11, D = 11, M = 11, En = 01001, F = 000, Cin = 0, clk = 1, Y = 4,  A = 0100, B = 0000
                 620Data = 4, Mode = 11, D = 11, M = 11, En = 01001, F = 000, Cin = 0, clk = 0, Y = 4,  A = 0100, B = 0000
                 625Data = 4, Mode = 11, D = 11, M = 11, En = 01001, F = 000, Cin = 0, clk = 1, Y = 4,  A = 0100, B = 0000
                 630Data = 4, Mode = 11, D = 11, M = 11, En = 01001, F = 000, Cin = 0, clk = 0, Y = 4,  A = 0100, B = 0000
                 635Data = 4, Mode = 11, D = 11, M = 11, En = 01001, F = 000, Cin = 0, clk = 1, Y = 4,  A = 0100, B = 0000
$finish called at time : 640 ns : File "D:/Verilog Projects/Reg_File/Reg_File.srcs/sim_1/new/Test.v" Line 36
