IDR/IDR.sim/sim_1/behav/xsim/simulate.log
Time resolution is 1 ps
                   0Inst = 12, Data = 2, clk = 0, Mode = 0, En = 11, Operand = x, Opcode = x, Store = z
                   5Inst = 12, Data = 2, clk = 1, Mode = 0, En = 11, Operand = 2, Opcode = 1, Store = z
                  10Inst = 12, Data = 2, clk = 0, Mode = 0, En = 11, Operand = 2, Opcode = 1, Store = z
                  15Inst = 12, Data = 2, clk = 1, Mode = 0, En = 11, Operand = 2, Opcode = 1, Store = z
                  20Inst = 12, Data = 2, clk = 0, Mode = 0, En = 11, Operand = 2, Opcode = 1, Store = z
                  25Inst = 12, Data = 2, clk = 1, Mode = 0, En = 11, Operand = 2, Opcode = 1, Store = z
                  30Inst = 12, Data = 2, clk = 0, Mode = 0, En = 11, Operand = 2, Opcode = 1, Store = z
                  35Inst = 12, Data = 2, clk = 1, Mode = 0, En = 11, Operand = 2, Opcode = 1, Store = z
                  40Inst = 12, Data = 2, clk = 0, Mode = 0, En = 11, Operand = 2, Opcode = 1, Store = z
                  45Inst = 12, Data = 2, clk = 1, Mode = 0, En = 11, Operand = 2, Opcode = 1, Store = z
                  50Inst = 34, Data = 2, clk = 0, Mode = 0, En = 11, Operand = 2, Opcode = 1, Store = z
                  55Inst = 34, Data = 2, clk = 1, Mode = 0, En = 11, Operand = 4, Opcode = 3, Store = z
                  60Inst = 34, Data = 2, clk = 0, Mode = 0, En = 11, Operand = 4, Opcode = 3, Store = z
                  65Inst = 34, Data = 2, clk = 1, Mode = 0, En = 11, Operand = 4, Opcode = 3, Store = z
                  70Inst = 34, Data = 2, clk = 0, Mode = 0, En = 11, Operand = 4, Opcode = 3, Store = z
                  75Inst = 34, Data = 2, clk = 1, Mode = 0, En = 11, Operand = 4, Opcode = 3, Store = z
                  80Inst = 34, Data = 2, clk = 0, Mode = 0, En = 11, Operand = 4, Opcode = 3, Store = z
                  85Inst = 34, Data = 2, clk = 1, Mode = 0, En = 11, Operand = 4, Opcode = 3, Store = z
                  90Inst = 34, Data = 2, clk = 0, Mode = 0, En = 11, Operand = 4, Opcode = 3, Store = z
                  95Inst = 34, Data = 2, clk = 1, Mode = 0, En = 11, Operand = 4, Opcode = 3, Store = z
                 100Inst = 34, Data = 2, clk = 0, Mode = 1, En = 10, Operand = z, Opcode = 3, Store = 4
                 105Inst = 34, Data = 2, clk = 1, Mode = 1, En = 10, Operand = z, Opcode = 3, Store = 2
                 110Inst = 34, Data = 2, clk = 0, Mode = 1, En = 10, Operand = z, Opcode = 3, Store = 2
                 115Inst = 34, Data = 2, clk = 1, Mode = 1, En = 10, Operand = z, Opcode = 3, Store = 2
                 120Inst = 34, Data = 2, clk = 0, Mode = 1, En = 10, Operand = z, Opcode = 3, Store = 2
                 125Inst = 34, Data = 2, clk = 1, Mode = 1, En = 10, Operand = z, Opcode = 3, Store = 2
                 130Inst = 34, Data = 2, clk = 0, Mode = 1, En = 10, Operand = z, Opcode = 3, Store = 2
                 135Inst = 34, Data = 2, clk = 1, Mode = 1, En = 10, Operand = z, Opcode = 3, Store = 2
                 140Inst = 34, Data = 2, clk = 0, Mode = 1, En = 10, Operand = z, Opcode = 3, Store = 2
                 145Inst = 34, Data = 2, clk = 1, Mode = 1, En = 10, Operand = z, Opcode = 3, Store = 2
                 150Inst = 34, Data = 4, clk = 0, Mode = 1, En = 10, Operand = z, Opcode = 3, Store = 2
                 155Inst = 34, Data = 4, clk = 1, Mode = 1, En = 10, Operand = z, Opcode = 3, Store = 4
                 160Inst = 34, Data = 4, clk = 0, Mode = 1, En = 10, Operand = z, Opcode = 3, Store = 4
                 165Inst = 34, Data = 4, clk = 1, Mode = 1, En = 10, Operand = z, Opcode = 3, Store = 4
                 170Inst = 34, Data = 4, clk = 0, Mode = 1, En = 10, Operand = z, Opcode = 3, Store = 4
                 175Inst = 34, Data = 4, clk = 1, Mode = 1, En = 10, Operand = z, Opcode = 3, Store = 4
                 180Inst = 34, Data = 4, clk = 0, Mode = 1, En = 10, Operand = z, Opcode = 3, Store = 4
                 185Inst = 34, Data = 4, clk = 1, Mode = 1, En = 10, Operand = z, Opcode = 3, Store = 4
                 190Inst = 34, Data = 4, clk = 0, Mode = 1, En = 10, Operand = z, Opcode = 3, Store = 4
                 195Inst = 34, Data = 4, clk = 1, Mode = 1, En = 10, Operand = z, Opcode = 3, Store = 4
                 200Inst = 56, Data = 4, clk = 0, Mode = 1, En = 10, Operand = z, Opcode = 3, Store = 4
                 205Inst = 56, Data = 4, clk = 1, Mode = 1, En = 10, Operand = z, Opcode = 3, Store = 4
                 210Inst = 56, Data = 4, clk = 0, Mode = 1, En = 10, Operand = z, Opcode = 3, Store = 4
                 215Inst = 56, Data = 4, clk = 1, Mode = 1, En = 10, Operand = z, Opcode = 3, Store = 4
                 220Inst = 56, Data = 4, clk = 0, Mode = 1, En = 10, Operand = z, Opcode = 3, Store = 4
                 225Inst = 56, Data = 4, clk = 1, Mode = 1, En = 10, Operand = z, Opcode = 3, Store = 4
                 230Inst = 56, Data = 4, clk = 0, Mode = 1, En = 10, Operand = z, Opcode = 3, Store = 4
                 235Inst = 56, Data = 4, clk = 1, Mode = 1, En = 10, Operand = z, Opcode = 3, Store = 4
                 240Inst = 56, Data = 4, clk = 0, Mode = 1, En = 10, Operand = z, Opcode = 3, Store = 4
                 245Inst = 56, Data = 4, clk = 1, Mode = 1, En = 10, Operand = z, Opcode = 3, Store = 4
                 250Inst = 56, Data = 4, clk = 0, Mode = 0, En = 11, Operand = 4, Opcode = 3, Store = z
                 255Inst = 56, Data = 4, clk = 1, Mode = 0, En = 11, Operand = 6, Opcode = 5, Store = z
                 260Inst = 56, Data = 4, clk = 0, Mode = 0, En = 11, Operand = 6, Opcode = 5, Store = z
                 265Inst = 56, Data = 4, clk = 1, Mode = 0, En = 11, Operand = 6, Opcode = 5, Store = z
                 270Inst = 56, Data = 4, clk = 0, Mode = 0, En = 11, Operand = 6, Opcode = 5, Store = z
                 275Inst = 56, Data = 4, clk = 1, Mode = 0, En = 11, Operand = 6, Opcode = 5, Store = z
                 280Inst = 56, Data = 4, clk = 0, Mode = 0, En = 11, Operand = 6, Opcode = 5, Store = z
                 285Inst = 56, Data = 4, clk = 1, Mode = 0, En = 11, Operand = 6, Opcode = 5, Store = z
                 290Inst = 56, Data = 4, clk = 0, Mode = 0, En = 11, Operand = 6, Opcode = 5, Store = z
                 295Inst = 56, Data = 4, clk = 1, Mode = 0, En = 11, Operand = 6, Opcode = 5, Store = z
                 300Inst = 56, Data = 4, clk = 0, Mode = 0, En = 11, Operand = 6, Opcode = 5, Store = z
                 305Inst = 56, Data = 4, clk = 1, Mode = 0, En = 11, Operand = 6, Opcode = 5, Store = z
                 310Inst = 56, Data = 4, clk = 0, Mode = 0, En = 11, Operand = 6, Opcode = 5, Store = z
                 315Inst = 56, Data = 4, clk = 1, Mode = 0, En = 11, Operand = 6, Opcode = 5, Store = z
                 320Inst = 56, Data = 4, clk = 0, Mode = 0, En = 11, Operand = 6, Opcode = 5, Store = z
                 325Inst = 56, Data = 4, clk = 1, Mode = 0, En = 11, Operand = 6, Opcode = 5, Store = z
                 330Inst = 56, Data = 4, clk = 0, Mode = 0, En = 11, Operand = 6, Opcode = 5, Store = z
                 335Inst = 56, Data = 4, clk = 1, Mode = 0, En = 11, Operand = 6, Opcode = 5, Store = z
                 340Inst = 56, Data = 4, clk = 0, Mode = 0, En = 11, Operand = 6, Opcode = 5, Store = z
                 345Inst = 56, Data = 4, clk = 1, Mode = 0, En = 11, Operand = 6, Opcode = 5, Store = z
                 350Inst = 56, Data = 4, clk = 0, Mode = 0, En = 11, Operand = 6, Opcode = 5, Store = z
                 355Inst = 56, Data = 4, clk = 1, Mode = 0, En = 11, Operand = 6, Opcode = 5, Store = z
                 360Inst = 56, Data = 4, clk = 0, Mode = 0, En = 11, Operand = 6, Opcode = 5, Store = z
                 365Inst = 56, Data = 4, clk = 1, Mode = 0, En = 11, Operand = 6, Opcode = 5, Store = z
                 370Inst = 56, Data = 4, clk = 0, Mode = 0, En = 11, Operand = 6, Opcode = 5, Store = z
                 375Inst = 56, Data = 4, clk = 1, Mode = 0, En = 11, Operand = 6, Opcode = 5, Store = z
                 380Inst = 56, Data = 4, clk = 0, Mode = 0, En = 11, Operand = 6, Opcode = 5, Store = z
                 385Inst = 56, Data = 4, clk = 1, Mode = 0, En = 11, Operand = 6, Opcode = 5, Store = z
                 390Inst = 56, Data = 4, clk = 0, Mode = 0, En = 11, Operand = 6, Opcode = 5, Store = z
                 395Inst = 56, Data = 4, clk = 1, Mode = 0, En = 11, Operand = 6, Opcode = 5, Store = z
                 400Inst = 56, Data = 4, clk = 0, Mode = 0, En = 11, Operand = 6, Opcode = 5, Store = z
                 405Inst = 56, Data = 4, clk = 1, Mode = 0, En = 11, Operand = 6, Opcode = 5, Store = z
                 410Inst = 56, Data = 4, clk = 0, Mode = 0, En = 11, Operand = 6, Opcode = 5, Store = z
                 415Inst = 56, Data = 4, clk = 1, Mode = 0, En = 11, Operand = 6, Opcode = 5, Store = z
                 420Inst = 56, Data = 4, clk = 0, Mode = 0, En = 11, Operand = 6, Opcode = 5, Store = z
                 425Inst = 56, Data = 4, clk = 1, Mode = 0, En = 11, Operand = 6, Opcode = 5, Store = z
                 430Inst = 56, Data = 4, clk = 0, Mode = 0, En = 11, Operand = 6, Opcode = 5, Store = z
                 435Inst = 56, Data = 4, clk = 1, Mode = 0, En = 11, Operand = 6, Opcode = 5, Store = z
                 440Inst = 56, Data = 4, clk = 0, Mode = 0, En = 11, Operand = 6, Opcode = 5, Store = z
                 445Inst = 56, Data = 4, clk = 1, Mode = 0, En = 11, Operand = 6, Opcode = 5, Store = z
                 450Inst = 56, Data = 4, clk = 0, Mode = 0, En = 11, Operand = 6, Opcode = 5, Store = z
                 455Inst = 56, Data = 4, clk = 1, Mode = 0, En = 11, Operand = 6, Opcode = 5, Store = z
                 460Inst = 56, Data = 4, clk = 0, Mode = 0, En = 11, Operand = 6, Opcode = 5, Store = z
                 465Inst = 56, Data = 4, clk = 1, Mode = 0, En = 11, Operand = 6, Opcode = 5, Store = z
                 470Inst = 56, Data = 4, clk = 0, Mode = 0, En = 11, Operand = 6, Opcode = 5, Store = z
                 475Inst = 56, Data = 4, clk = 1, Mode = 0, En = 11, Operand = 6, Opcode = 5, Store = z
                 480Inst = 56, Data = 4, clk = 0, Mode = 0, En = 11, Operand = 6, Opcode = 5, Store = z
                 485Inst = 56, Data = 4, clk = 1, Mode = 0, En = 11, Operand = 6, Opcode = 5, Store = z
                 490Inst = 56, Data = 4, clk = 0, Mode = 0, En = 11, Operand = 6, Opcode = 5, Store = z
                 495Inst = 56, Data = 4, clk = 1, Mode = 0, En = 11, Operand = 6, Opcode = 5, Store = z
                 500Inst = 56, Data = 4, clk = 0, Mode = 0, En = 11, Operand = 6, Opcode = 5, Store = z
                 505Inst = 56, Data = 4, clk = 1, Mode = 0, En = 11, Operand = 6, Opcode = 5, Store = z
                 510Inst = 56, Data = 4, clk = 0, Mode = 0, En = 11, Operand = 6, Opcode = 5, Store = z
                 515Inst = 56, Data = 4, clk = 1, Mode = 0, En = 11, Operand = 6, Opcode = 5, Store = z
                 520Inst = 56, Data = 4, clk = 0, Mode = 0, En = 11, Operand = 6, Opcode = 5, Store = z
                 525Inst = 56, Data = 4, clk = 1, Mode = 0, En = 11, Operand = 6, Opcode = 5, Store = z
                 530Inst = 56, Data = 4, clk = 0, Mode = 0, En = 11, Operand = 6, Opcode = 5, Store = z
                 535Inst = 56, Data = 4, clk = 1, Mode = 0, En = 11, Operand = 6, Opcode = 5, Store = z
                 540Inst = 56, Data = 4, clk = 0, Mode = 0, En = 11, Operand = 6, Opcode = 5, Store = z
                 545Inst = 56, Data = 4, clk = 1, Mode = 0, En = 11, Operand = 6, Opcode = 5, Store = z
                 550Inst = 56, Data = 4, clk = 0, Mode = 0, En = 11, Operand = 6, Opcode = 5, Store = z
                 555Inst = 56, Data = 4, clk = 1, Mode = 0, En = 11, Operand = 6, Opcode = 5, Store = z
                 560Inst = 56, Data = 4, clk = 0, Mode = 0, En = 11, Operand = 6, Opcode = 5, Store = z
                 565Inst = 56, Data = 4, clk = 1, Mode = 0, En = 11, Operand = 6, Opcode = 5, Store = z
                 570Inst = 56, Data = 4, clk = 0, Mode = 0, En = 11, Operand = 6, Opcode = 5, Store = z
                 575Inst = 56, Data = 4, clk = 1, Mode = 0, En = 11, Operand = 6, Opcode = 5, Store = z
                 580Inst = 56, Data = 4, clk = 0, Mode = 0, En = 11, Operand = 6, Opcode = 5, Store = z
                 585Inst = 56, Data = 4, clk = 1, Mode = 0, En = 11, Operand = 6, Opcode = 5, Store = z
                 590Inst = 56, Data = 4, clk = 0, Mode = 0, En = 11, Operand = 6, Opcode = 5, Store = z
                 595Inst = 56, Data = 4, clk = 1, Mode = 0, En = 11, Operand = 6, Opcode = 5, Store = z
                 600Inst = 56, Data = 4, clk = 0, Mode = 0, En = 11, Operand = 6, Opcode = 5, Store = z
                 605Inst = 56, Data = 4, clk = 1, Mode = 0, En = 11, Operand = 6, Opcode = 5, Store = z
                 610Inst = 56, Data = 4, clk = 0, Mode = 0, En = 11, Operand = 6, Opcode = 5, Store = z
                 615Inst = 56, Data = 4, clk = 1, Mode = 0, En = 11, Operand = 6, Opcode = 5, Store = z
                 620Inst = 56, Data = 4, clk = 0, Mode = 0, En = 11, Operand = 6, Opcode = 5, Store = z
                 625Inst = 56, Data = 4, clk = 1, Mode = 0, En = 11, Operand = 6, Opcode = 5, Store = z
                 630Inst = 56, Data = 4, clk = 0, Mode = 0, En = 11, Operand = 6, Opcode = 5, Store = z
                 635Inst = 56, Data = 4, clk = 1, Mode = 0, En = 11, Operand = 6, Opcode = 5, Store = z
                 640Inst = 56, Data = 4, clk = 0, Mode = 0, En = 11, Operand = 6, Opcode = 5, Store = z
                 645Inst = 56, Data = 4, clk = 1, Mode = 0, En = 11, Operand = 6, Opcode = 5, Store = z
                 650Inst = 56, Data = 4, clk = 0, Mode = 0, En = 11, Operand = 6, Opcode = 5, Store = z
                 655Inst = 56, Data = 4, clk = 1, Mode = 0, En = 11, Operand = 6, Opcode = 5, Store = z
                 660Inst = 56, Data = 4, clk = 0, Mode = 0, En = 11, Operand = 6, Opcode = 5, Store = z
                 665Inst = 56, Data = 4, clk = 1, Mode = 0, En = 11, Operand = 6, Opcode = 5, Store = z
                 670Inst = 56, Data = 4, clk = 0, Mode = 0, En = 11, Operand = 6, Opcode = 5, Store = z
                 675Inst = 56, Data = 4, clk = 1, Mode = 0, En = 11, Operand = 6, Opcode = 5, Store = z
                 680Inst = 56, Data = 4, clk = 0, Mode = 0, En = 11, Operand = 6, Opcode = 5, Store = z
                 685Inst = 56, Data = 4, clk = 1, Mode = 0, En = 11, Operand = 6, Opcode = 5, Store = z
                 690Inst = 56, Data = 4, clk = 0, Mode = 0, En = 11, Operand = 6, Opcode = 5, Store = z
                 695Inst = 56, Data = 4, clk = 1, Mode = 0, En = 11, Operand = 6, Opcode = 5, Store = z
                 700Inst = 56, Data = 4, clk = 0, Mode = 0, En = 11, Operand = 6, Opcode = 5, Store = z
                 705Inst = 56, Data = 4, clk = 1, Mode = 0, En = 11, Operand = 6, Opcode = 5, Store = z
                 710Inst = 56, Data = 4, clk = 0, Mode = 0, En = 11, Operand = 6, Opcode = 5, Store = z
                 715Inst = 56, Data = 4, clk = 1, Mode = 0, En = 11, Operand = 6, Opcode = 5, Store = z
                 720Inst = 56, Data = 4, clk = 0, Mode = 0, En = 11, Operand = 6, Opcode = 5, Store = z
                 725Inst = 56, Data = 4, clk = 1, Mode = 0, En = 11, Operand = 6, Opcode = 5, Store = z
                 730Inst = 56, Data = 4, clk = 0, Mode = 0, En = 11, Operand = 6, Opcode = 5, Store = z
                 735Inst = 56, Data = 4, clk = 1, Mode = 0, En = 11, Operand = 6, Opcode = 5, Store = z
                 740Inst = 56, Data = 4, clk = 0, Mode = 0, En = 11, Operand = 6, Opcode = 5, Store = z
                 745Inst = 56, Data = 4, clk = 1, Mode = 0, En = 11, Operand = 6, Opcode = 5, Store = z
                 750Inst = 56, Data = 4, clk = 0, Mode = 0, En = 11, Operand = 6, Opcode = 5, Store = z
                 755Inst = 56, Data = 4, clk = 1, Mode = 0, En = 11, Operand = 6, Opcode = 5, Store = z
                 760Inst = 56, Data = 4, clk = 0, Mode = 0, En = 11, Operand = 6, Opcode = 5, Store = z
                 765Inst = 56, Data = 4, clk = 1, Mode = 0, En = 11, Operand = 6, Opcode = 5, Store = z
                 770Inst = 56, Data = 4, clk = 0, Mode = 0, En = 11, Operand = 6, Opcode = 5, Store = z
                 775Inst = 56, Data = 4, clk = 1, Mode = 0, En = 11, Operand = 6, Opcode = 5, Store = z
                 780Inst = 56, Data = 4, clk = 0, Mode = 0, En = 11, Operand = 6, Opcode = 5, Store = z
                 785Inst = 56, Data = 4, clk = 1, Mode = 0, En = 11, Operand = 6, Opcode = 5, Store = z
                 790Inst = 56, Data = 4, clk = 0, Mode = 0, En = 11, Operand = 6, Opcode = 5, Store = z
                 795Inst = 56, Data = 4, clk = 1, Mode = 0, En = 11, Operand = 6, Opcode = 5, Store = z
                 800Inst = 56, Data = 4, clk = 0, Mode = 0, En = 11, Operand = 6, Opcode = 5, Store = z
                 805Inst = 56, Data = 4, clk = 1, Mode = 0, En = 11, Operand = 6, Opcode = 5, Store = z
                 810Inst = 56, Data = 4, clk = 0, Mode = 0, En = 11, Operand = 6, Opcode = 5, Store = z
                 815Inst = 56, Data = 4, clk = 1, Mode = 0, En = 11, Operand = 6, Opcode = 5, Store = z
                 820Inst = 56, Data = 4, clk = 0, Mode = 0, En = 11, Operand = 6, Opcode = 5, Store = z
                 825Inst = 56, Data = 4, clk = 1, Mode = 0, En = 11, Operand = 6, Opcode = 5, Store = z
                 830Inst = 56, Data = 4, clk = 0, Mode = 0, En = 11, Operand = 6, Opcode = 5, Store = z
                 835Inst = 56, Data = 4, clk = 1, Mode = 0, En = 11, Operand = 6, Opcode = 5, Store = z
                 840Inst = 56, Data = 4, clk = 0, Mode = 0, En = 11, Operand = 6, Opcode = 5, Store = z
                 845Inst = 56, Data = 4, clk = 1, Mode = 0, En = 11, Operand = 6, Opcode = 5, Store = z
                 850Inst = 56, Data = 4, clk = 0, Mode = 0, En = 11, Operand = 6, Opcode = 5, Store = z
                 855Inst = 56, Data = 4, clk = 1, Mode = 0, En = 11, Operand = 6, Opcode = 5, Store = z
                 860Inst = 56, Data = 4, clk = 0, Mode = 0, En = 11, Operand = 6, Opcode = 5, Store = z
                 865Inst = 56, Data = 4, clk = 1, Mode = 0, En = 11, Operand = 6, Opcode = 5, Store = z
                 870Inst = 56, Data = 4, clk = 0, Mode = 0, En = 11, Operand = 6, Opcode = 5, Store = z
                 875Inst = 56, Data = 4, clk = 1, Mode = 0, En = 11, Operand = 6, Opcode = 5, Store = z
                 880Inst = 56, Data = 4, clk = 0, Mode = 0, En = 11, Operand = 6, Opcode = 5, Store = z
                 885Inst = 56, Data = 4, clk = 1, Mode = 0, En = 11, Operand = 6, Opcode = 5, Store = z
                 890Inst = 56, Data = 4, clk = 0, Mode = 0, En = 11, Operand = 6, Opcode = 5, Store = z
                 895Inst = 56, Data = 4, clk = 1, Mode = 0, En = 11, Operand = 6, Opcode = 5, Store = z
                 900Inst = 56, Data = 4, clk = 0, Mode = 0, En = 11, Operand = 6, Opcode = 5, Store = z
                 905Inst = 56, Data = 4, clk = 1, Mode = 0, En = 11, Operand = 6, Opcode = 5, Store = z
                 910Inst = 56, Data = 4, clk = 0, Mode = 0, En = 11, Operand = 6, Opcode = 5, Store = z
                 915Inst = 56, Data = 4, clk = 1, Mode = 0, En = 11, Operand = 6, Opcode = 5, Store = z
                 920Inst = 56, Data = 4, clk = 0, Mode = 0, En = 11, Operand = 6, Opcode = 5, Store = z
                 925Inst = 56, Data = 4, clk = 1, Mode = 0, En = 11, Operand = 6, Opcode = 5, Store = z
                 930Inst = 56, Data = 4, clk = 0, Mode = 0, En = 11, Operand = 6, Opcode = 5, Store = z
                 935Inst = 56, Data = 4, clk = 1, Mode = 0, En = 11, Operand = 6, Opcode = 5, Store = z
                 940Inst = 56, Data = 4, clk = 0, Mode = 0, En = 11, Operand = 6, Opcode = 5, Store = z
                 945Inst = 56, Data = 4, clk = 1, Mode = 0, En = 11, Operand = 6, Opcode = 5, Store = z
                 950Inst = 56, Data = 4, clk = 0, Mode = 0, En = 11, Operand = 6, Opcode = 5, Store = z
                 955Inst = 56, Data = 4, clk = 1, Mode = 0, En = 11, Operand = 6, Opcode = 5, Store = z
                 960Inst = 56, Data = 4, clk = 0, Mode = 0, En = 11, Operand = 6, Opcode = 5, Store = z
                 965Inst = 56, Data = 4, clk = 1, Mode = 0, En = 11, Operand = 6, Opcode = 5, Store = z
                 970Inst = 56, Data = 4, clk = 0, Mode = 0, En = 11, Operand = 6, Opcode = 5, Store = z
                 975Inst = 56, Data = 4, clk = 1, Mode = 0, En = 11, Operand = 6, Opcode = 5, Store = z
                 980Inst = 56, Data = 4, clk = 0, Mode = 0, En = 11, Operand = 6, Opcode = 5, Store = z
                 985Inst = 56, Data = 4, clk = 1, Mode = 0, En = 11, Operand = 6, Opcode = 5, Store = z
                 990Inst = 56, Data = 4, clk = 0, Mode = 0, En = 11, Operand = 6, Opcode = 5, Store = z
                 995Inst = 56, Data = 4, clk = 1, Mode = 0, En = 11, Operand = 6, Opcode = 5, Store = z
                1000Inst = 56, Data = 4, clk = 0, Mode = 0, En = 11, Operand = 6, Opcode = 5, Store = z
