Control Logic/Control Logic.sim/sim_1/behav/xsim/simulate.log
Time resolution is 1 ps
                   0S = xxxx, clk = 0, s = x, rst = 1, Control = xxxx, T = xxxxX
                  10S = xxxx, clk = 1, s = x, rst = 1, Control = xxxx, T = xxxxX
                  20S = xxxx, clk = 0, s = 0, rst = 0, Control = Xxxx, T = xxxxX
                  30S = xxxx, clk = 1, s = 0, rst = 0, Control = Xxxx, T = xxxxx
                  40S = 0000, clk = 0, s = 1, rst = 0, Control = 4000, T = 0000X
                  50S = 0000, clk = 1, s = 1, rst = 0, Control = 4000, T = 00001
                  60S = 0000, clk = 0, s = 1, rst = 0, Control = 4000, T = 00001
                  70S = 0000, clk = 1, s = 1, rst = 0, Control = 4000, T = 00001
                  80S = 0000, clk = 0, s = 0, rst = 0, Control = 0000, T = 00001
                  90S = 0000, clk = 1, s = 0, rst = 0, Control = 0002, T = 00002
                 100S = 0000, clk = 0, s = 0, rst = 0, Control = 0002, T = 00002
                 110S = 0001, clk = 1, s = 0, rst = 0, Control = 000d, T = 00004
                 120S = 0001, clk = 0, s = 0, rst = 0, Control = 000d, T = 00004
                 130S = 0001, clk = 1, s = 0, rst = 0, Control = 0010, T = 00008
                 140S = 0001, clk = 0, s = 0, rst = 0, Control = 0010, T = 00008
                 150S = 0002, clk = 1, s = 0, rst = 0, Control = 0022, T = 00020
                 160S = 0002, clk = 0, s = 0, rst = 0, Control = 0022, T = 00020
                 170S = 0002, clk = 1, s = 0, rst = 0, Control = 0004, T = 00800
                 180S = 0002, clk = 0, s = 0, rst = 0, Control = 0004, T = 00800
                 190S = 0002, clk = 1, s = 0, rst = 0, Control = 0002, T = 00002
                 200S = 0004, clk = 0, s = 0, rst = 0, Control = 0002, T = 00002
                 210S = 0004, clk = 1, s = 0, rst = 0, Control = 000d, T = 00004
                 220S = 0004, clk = 0, s = 0, rst = 0, Control = 000d, T = 00004
                 230S = 0004, clk = 1, s = 0, rst = 0, Control = 0010, T = 00008
                 240S = 0004, clk = 0, s = 0, rst = 0, Control = 0010, T = 00008
                 250S = 0008, clk = 1, s = 0, rst = 0, Control = 0000, T = 00040
                 260S = 0008, clk = 0, s = 0, rst = 0, Control = 0000, T = 00040
                 270S = 0008, clk = 1, s = 0, rst = 0, Control = 0200, T = 02000
                 280S = 0008, clk = 0, s = 0, rst = 0, Control = 0200, T = 02000
                 290S = 0008, clk = 1, s = 0, rst = 0, Control = 0002, T = 00002
                 300S = 0010, clk = 0, s = 0, rst = 0, Control = 0002, T = 00002
                 310S = 0010, clk = 1, s = 0, rst = 0, Control = 000d, T = 00004
                 320S = 0010, clk = 0, s = 0, rst = 0, Control = 000d, T = 00004
                 330S = 0010, clk = 1, s = 0, rst = 0, Control = 0010, T = 00008
                 340S = 0020, clk = 0, s = 0, rst = 0, Control = 0010, T = 00008
                 350S = 0020, clk = 1, s = 0, rst = 0, Control = 0300, T = 00100
                 360S = 0020, clk = 0, s = 0, rst = 0, Control = 0300, T = 00100
                 370S = 0020, clk = 1, s = 0, rst = 0, Control = 0002, T = 00002
                 380S = 0040, clk = 0, s = 0, rst = 0, Control = 0002, T = 00002
                 390S = 0040, clk = 1, s = 0, rst = 0, Control = 000d, T = 00004
                 400S = 0040, clk = 0, s = 0, rst = 0, Control = 000d, T = 00004
                 410S = 0040, clk = 1, s = 0, rst = 0, Control = 0010, T = 00008
                 420S = 0040, clk = 0, s = 0, rst = 0, Control = 0010, T = 00008
                 430S = 0080, clk = 1, s = 0, rst = 0, Control = 0000, T = 00040
                 440S = 0080, clk = 0, s = 0, rst = 0, Control = 0000, T = 00040
                 450S = 0080, clk = 1, s = 0, rst = 0, Control = 0400, T = 08000
                 460S = 0080, clk = 0, s = 0, rst = 0, Control = 0400, T = 08000
                 470S = 0080, clk = 1, s = 0, rst = 0, Control = 0002, T = 00002
                 480S = 0100, clk = 0, s = 0, rst = 0, Control = 0002, T = 00002
                 490S = 0100, clk = 1, s = 0, rst = 0, Control = 000d, T = 00004
                 500S = 0100, clk = 0, s = 0, rst = 0, Control = 000d, T = 00004
                 510S = 0100, clk = 1, s = 0, rst = 0, Control = 0010, T = 00008
                 520S = 0100, clk = 0, s = 0, rst = 0, Control = 0010, T = 00008
                 530S = 0200, clk = 1, s = 0, rst = 0, Control = 0000, T = 00040
                 540S = 0200, clk = 0, s = 0, rst = 0, Control = 0000, T = 00040
                 550S = 0200, clk = 1, s = 0, rst = 0, Control = 0700, T = 20000
                 560S = 0200, clk = 0, s = 0, rst = 0, Control = 0700, T = 20000
                 570S = 0200, clk = 1, s = 0, rst = 0, Control = 0002, T = 00002
                 580S = 0400, clk = 0, s = 0, rst = 0, Control = 0002, T = 00002
                 590S = 0400, clk = 1, s = 0, rst = 0, Control = 000d, T = 00004
                 600S = 0400, clk = 0, s = 0, rst = 0, Control = 000d, T = 00004
                 610S = 0400, clk = 1, s = 0, rst = 0, Control = 0010, T = 00008
                 620S = 0800, clk = 0, s = 0, rst = 0, Control = 0010, T = 00008
                 630S = 0800, clk = 1, s = 0, rst = 0, Control = 2050, T = 00400
                 640S = 0800, clk = 0, s = 0, rst = 0, Control = 2050, T = 00400
                 650S = 0800, clk = 1, s = 0, rst = 0, Control = 0002, T = 00002
                 660S = 1000, clk = 0, s = 0, rst = 0, Control = 0002, T = 00002
                 670S = 1000, clk = 1, s = 0, rst = 0, Control = 000d, T = 00004
                 680S = 1000, clk = 0, s = 0, rst = 0, Control = 000d, T = 00004
                 690S = 1000, clk = 1, s = 0, rst = 0, Control = 0010, T = 00008
                 700S = 0000, clk = 0, s = 0, rst = 0, Control = 0010, T = 00008
                 710S = 0000, clk = 1, s = 0, rst = 0, Control = 0000, T = 00000
                 720S = 0000, clk = 0, s = 0, rst = 0, Control = 0000, T = 00000
                 730S = 0000, clk = 1, s = 0, rst = 0, Control = 0000, T = 00000
                 740S = 0000, clk = 0, s = 0, rst = 0, Control = 0000, T = 00000
                 750S = 0000, clk = 1, s = 0, rst = 0, Control = 0000, T = 00000
                 760S = 0000, clk = 0, s = 0, rst = 0, Control = 0000, T = 00000
                 770S = 0000, clk = 1, s = 0, rst = 0, Control = 0000, T = 00000
                 780S = 0000, clk = 0, s = 0, rst = 0, Control = 0000, T = 00000
                 790S = 0000, clk = 1, s = 0, rst = 0, Control = 0000, T = 00000
                 800S = 0000, clk = 0, s = 0, rst = 0, Control = 0000, T = 00000
                 810S = 0000, clk = 1, s = 0, rst = 0, Control = 0000, T = 00000
                 820S = 0000, clk = 0, s = 0, rst = 0, Control = 0000, T = 00000
                 830S = 0000, clk = 1, s = 0, rst = 0, Control = 0000, T = 00000
                 840S = 0000, clk = 0, s = 0, rst = 0, Control = 0000, T = 00000
                 850S = 0000, clk = 1, s = 0, rst = 0, Control = 0000, T = 00000
                 860S = 0000, clk = 0, s = 0, rst = 0, Control = 0000, T = 00000
                 870S = 0000, clk = 1, s = 0, rst = 0, Control = 0000, T = 00000
                 880S = 0000, clk = 0, s = 0, rst = 0, Control = 0000, T = 00000
                 890S = 0000, clk = 1, s = 0, rst = 0, Control = 0000, T = 00000
                 900S = 0000, clk = 0, s = 0, rst = 0, Control = 0000, T = 00000
                 910S = 0000, clk = 1, s = 0, rst = 0, Control = 0000, T = 00000
                 920S = 0000, clk = 0, s = 0, rst = 0, Control = 0000, T = 00000
                 930S = 0000, clk = 1, s = 0, rst = 0, Control = 0000, T = 00000
                 940S = 0000, clk = 0, s = 0, rst = 0, Control = 0000, T = 00000
                 950S = 0000, clk = 1, s = 0, rst = 0, Control = 0000, T = 00000
                 960S = 0000, clk = 0, s = 0, rst = 0, Control = 0000, T = 00000
                 970S = 0000, clk = 1, s = 0, rst = 0, Control = 0000, T = 00000
                 980S = 0000, clk = 0, s = 0, rst = 0, Control = 0000, T = 00000
                 990S = 0000, clk = 1, s = 0, rst = 0, Control = 0000, T = 00000
                1000S = 0000, clk = 0, s = 0, rst = 0, Control = 0000, T = 00000
